OFF
1267 2517 0

-0.158429 -0.0392896 -0.50453
0.128237 -0.0934778 -0.538817
0.0551051 -0.000969176 -0.268731
-0.0825588 -0.0687029 -0.802786
0.181047 -0.0914952 -0.794411
0.31008 -0.0324951 -0.458648
0.020239 -0.0192823 -1.08623
0.260622 0.0851385 -0.0767275
0.467843 -0.0093409 -0.698284
0.0802944 0.0747861 0.0615033
-0.336344 0.195253 -0.134333
-0.447633 0.145076 -0.603172
-0.106973 0.080391 -0.13459
-0.292258 0.0384139 -0.860517
0.330567 -0.0102613 -0.992015
-0.0713922 0.0830822 0.276882
0.679189 0.186301 -0.505016
0.473811 0.125043 -0.214872
0.518729 0.063208 -1.00428
0.0376731 0.158029 -1.31215
0.324989 0.084852 -1.2182
0.45627 0.191126 0.106031
-0.459211 0.220455 -0.99365
-0.216233 0.117504 -1.17914
0.628883 0.382593 -0.00259347
0.360428 0.10266 0.406921
-0.566978 0.357289 -0.482456
-0.608128 0.449556 -0.852828
-0.23638 0.155178 0.263967
-0.392694 0.328478 0.27955
-0.583194 0.580694 -0.309533
-0.632265 0.585249 -0.603051
0.300709 0.311827 -1.43161
-0.266904 0.091718 0.542503
0.847644 0.41355 -0.679522
0.787456 0.48055 -0.296988
0.593044 0.304956 -1.27057
0.730756 0.232527 -0.930422
-0.473421 0.509184 -0.0259291
-0.135643 0.43046 -1.4722
0.8138 0.604759 -1.15494
0.54665 0.29285 0.331052
-0.63679 0.735762 -0.467267
-0.627272 0.779488 -0.669384
-0.391703 0.362532 -1.2428
-0.620828 0.631635 -0.380272
-0.695554 0.578877 -0.366755
-0.694547 0.660932 -0.432252
0.556472 0.272838 0.570856
0.426967 0.0274201 0.812687
-0.705054 0.721303 -0.448453
-0.750289 0.6743 -0.418711
-0.648032 0.558445 -0.173166
-0.725688 0.577966 -0.289182
-0.547313 0.610559 -0.195037
-0.599572 0.618012 -0.276305
-0.521422 0.514244 -1.13181
0.149941 0.0166147 0.524633
0.227426 -0.0716423 0.849711
0.00733352 -0.107322 0.888975
-0.743144 0.639161 -0.329767
-0.693128 0.875872 -0.434428
-0.609144 0.91968 -0.481339
-0.698611 0.649728 -0.23315
-0.69857 0.682229 -0.368396
-0.708548 0.62632 -0.130119
0.970937 0.814387 -0.453925
0.953828 0.619314 -0.388744
0.873275 0.642813 -0.426037
0.781296 0.644901 -0.13935
0.843147 0.60228 -0.274168
0.6424 0.670761 -1.37511
0.253559 0.605333 -1.54478
-0.749915 0.798039 -0.419924
-0.719164 0.775206 -0.363753
0.879146 0.613294 -0.0802855
0.814589 0.651756 -0.139024
0.449174 0.554954 -1.48061
-0.612405 0.952346 -0.318986
-0.631389 0.864711 -0.424189
-0.71285 0.771717 -0.246494
-0.74625 0.717089 -0.289133
-0.735811 0.7093 -0.177578
-0.503528 0.750382 -0.0206042
-0.458721 0.36559 0.622217
-0.470991 0.668444 0.307036
-0.398352 0.725633 -1.37272
-0.432295 0.0459813 0.987626
-0.442867 0.200823 0.819106
-0.315598 0.075393 0.745669
0.879819 0.795037 -0.47703
0.873896 0.895667 -0.408436
-0.661736 0.896688 -0.301039
-0.647445 0.820151 -0.353099
-0.680993 0.731849 -0.0368442
-0.583159 0.665456 -0.113802
-0.633793 0.640407 -0.0439216
0.875694 0.941322 -0.316489
0.98885 0.633044 -0.330684
0.942581 0.71906 -0.35789
0.944261 0.639822 -0.255355
0.978353 0.716199 -0.260685
0.945122 0.646544 -0.0878806
0.949447 0.564041 -0.219934
0.37255 -0.141621 1.06569
-0.618522 0.841633 -0.271389
-0.702087 0.758384 -0.137818
-0.5237 0.823128 0.0324261
-0.174914 -0.226734 1.18631
0.923961 0.762861 -0.340156
0.708406 0.645017 0.0731944
0.723633 0.716211 0.0268378
0.671616 0.547089 0.359013
-0.599353 1.01932 -0.910157
-0.542371 0.975644 -1.1876
-0.6368 0.722306 -0.902306
-0.468917 0.763389 0.141644
-0.06809 0.789783 -1.54639
0.93942 0.844044 -0.379372
0.844792 0.807276 -0.313948
0.836078 0.862556 -0.318422
0.965246 0.672871 -0.158218
0.921644 0.696422 -0.0770833
0.808567 0.719606 -0.029335
0.758383 0.791078 0.0295922
0.674079 0.882747 0.142279
-0.608307 0.900908 -0.199482
-0.581419 0.800328 -0.197598
-0.656269 0.774889 0.0342936
0.822394 1.04718 -0.958994
0.835784 1.3866 -0.41568
0.851781 1.00419 -0.469797
0.924287 0.773102 -0.238129
0.831972 0.834028 -0.252911
0.955447 0.737746 -0.180185
0.843797 0.759613 0.0737024
0.783087 0.900268 0.122145
0.0640722 1.23983 -1.51183
0.266116 0.897492 -1.54452
-0.619376 0.908015 -0.156676
-0.580888 0.863328 -0.135965
-0.657567 0.8032 -0.05583
-0.534992 0.943946 0.126386
0.802256 1.33922 -0.759111
0.856983 1.25095 -0.203459
0.839699 0.978702 -0.254576
0.877194 0.893667 -0.24275
0.853148 0.738868 -0.16685
0.944167 0.732878 -0.0828711
0.902281 0.768718 -0.0626031
0.89978 0.759817 0.0386056
-0.582348 1.25009 -0.317036
-0.598139 0.938883 -0.0794917
-0.578967 0.825278 -0.0763217
0.851798 0.901995 -0.192696
0.869311 0.857344 -0.120354
0.768062 0.843597 -0.157568
0.805363 0.815254 -0.177889
0.882961 0.681183 -0.803906
0.474228 0.804078 -1.47933
-0.562991 1.00203 -0.118351
-0.644792 0.902835 -0.0490619
-0.593917 0.345311 1.03258
-0.270653 1.16594 -1.43161
0.749435 0.831331 -0.0740156
0.858304 0.838416 -0.031765
0.851522 0.854656 0.108894
0.726978 0.895467 0.0914244
-0.553474 1.27137 -0.61867
-0.597011 0.958067 0.00317333
-0.635544 0.850933 0.0302044
-0.635067 0.919978 0.101874
-0.578544 0.869933 0.0972644
0.81171 0.887728 -0.0343768
0.668755 0.959746 0.338178
0.667917 0.79705 0.273896
0.641294 0.512311 0.645306
0.617861 0.305792 0.788417
-0.636818 0.918755 0.0413764
-0.559506 0.995733 0.03887
0.829848 0.935672 -0.06987
0.778229 0.985757 -0.0118131
0.832033 0.919 0.00583944
0.876944 0.8722 -0.0193122
0.844194 0.931639 0.0964878
0.739257 0.969959 0.120405
0.667983 0.738078 0.537706
0.709044 0.493267 0.931111
-0.415736 0.894235 0.365531
0.645178 0.0456661 1.09606
-0.59303 0.190698 1.05201
-0.558906 -0.0414322 1.21751
0.2095 -0.2982 1.259
-0.116 -0.2563 1.295
0.600102 1.1085 -1.3648
0.561725 -0.175076 1.23774
-0.459878 1.14692 0.470757
-0.54445 0.601578 1.02552
-0.752501 0.195042 1.20601
0.767138 1.12947 0.100604
0.70312 1.33979 -1.19762
0.734844 1.14851 0.362613
0.600861 0.927417 0.508256
0.654139 0.735367 0.767089
0.707511 0.959789 -1.27711
0.492 -0.1938 1.309
-0.492779 1.49191 -0.277202
-0.50389 1.472 -0.515424
-0.4223 -0.1543 1.271
0.740217 1.5405 -0.603928
0.734302 1.55706 -0.481035
0.742361 1.56033 -0.841044
0.727137 0.262865 1.01351
0.890358 0.453302 1.15703
0.927613 0.162669 1.22418
-0.512856 1.18531 0.218788
0.726632 1.56777 -0.317704
0.8574 0.02385 1.291
-0.396786 1.72208 -0.55847
-0.410149 1.56499 -0.398107
-0.417464 1.61797 -0.668094
-0.533328 1.38591 -0.937978
-0.562043 1.22199 -0.0490783
-0.499799 1.40193 0.0174639
-0.392481 1.04922 0.466593
-0.310571 1.09173 0.602857
-0.8306 0.1963 1.317
0.645758 1.72801 -0.528476
0.652884 1.61815 -0.392218
0.742128 1.34844 0.0846333
0.580309 0.901405 0.630675
0.424803 1.20182 -1.45644
0.320288 1.53561 -1.3645
-0.399378 1.65988 -0.851537
-0.398992 1.37877 -1.26327
-0.432225 1.39456 0.2406
-0.392056 0.908978 0.602922
-0.463622 0.744667 0.659306
0.789488 0.00832437 1.21068
-0.348521 1.57328 -1.14049
-0.337663 0.965038 0.838216
-0.0905311 1.54772 -1.34613
0.599693 1.70256 -0.436946
0.582339 1.7651 -0.684025
0.664283 1.24774 0.539944
0.725394 0.68 1.05534
-0.406933 0.89705 1.08043
0.575872 1.68011 -0.412461
-0.254668 1.78637 -0.720855
0.186742 1.81438 -1.08181
0.72269 1.54656 -0.0978312
0.587782 1.55188 0.274325
0.562338 0.889286 0.899978
1.023 0.2887 1.304
-0.3449 1.63511 -0.426467
-0.29834 1.72855 -0.443696
-0.320834 1.69503 -0.478411
-0.257189 1.71711 -0.420067
-0.2865 1.70244 -0.430244
-0.343134 1.60557 -0.397783
-0.335033 1.61266 -0.346347
-0.374761 1.62833 -0.268698
-0.448972 1.56172 -0.0871156
0.560701 1.77568 -0.451894
0.574211 1.74589 -0.4819
0.565262 1.81155 -0.587284
0.544908 1.77331 -0.508987
0.633344 1.68467 -0.165272
0.568428 1.15858 0.608394
-0.242369 1.75817 -0.510787
-0.161422 1.77883 -0.477456
-0.290168 1.70027 -0.366917
-0.774922 0.460889 1.20717
0.46856 1.81903 -0.48079
0.545089 1.745 -0.434844
0.562848 1.70339 -0.279835
0.553872 1.73028 -0.345961
0.660964 1.37673 0.421491
0.460829 1.12774 0.702993
0.986633 0.376811 1.21711
-0.169143 1.76553 -0.516438
-0.181225 1.83339 -0.551196
-0.231972 1.739 -0.447506
-0.238139 1.70738 -0.290854
0.434226 1.795 -0.515847
0.395361 1.7915 -0.477083
0.455849 1.77925 -0.456529
0.509078 1.74539 -0.397111
0.601428 0.881616 1.10145
-0.174323 1.74117 -0.401717
-0.150463 1.74943 -0.455058
-0.277795 1.74458 -0.0664993
-0.31303 1.57214 0.256338
-0.356546 1.43495 0.536331
-0.7538 0.5997 1.285
-0.130069 1.77372 -1.06621
0.495468 1.83831 -0.56046
0.39174 1.75056 -0.448763
0.410778 1.89889 -0.6231
0.543961 1.7375 -0.972861
-0.0831987 1.83584 -0.535928
-0.0798667 1.70789 -0.4143
-0.0966694 1.72717 -0.383828
-0.177043 1.75567 -0.394244
-0.266011 1.73522 -0.964567
-0.300699 1.3478 0.665098
-0.14527 1.08974 0.839715
0.413147 1.85457 -0.540947
0.411528 1.75378 -0.405717
0.423383 1.76267 -0.361933
0.464164 1.73961 -0.290717
0.585299 1.67823 0.0359127
0.9449 0.5649 1.273
-0.0638133 1.89972 -0.609967
-0.220488 1.85133 -0.6177
0.0323911 1.72844 -0.441583
-0.0237068 1.72373 -0.477415
-0.038956 1.71788 -0.429039
-0.11269 1.72208 -0.319447
-0.59992 0.747927 1.21986
0.327647 1.85161 -0.783117
0.301494 1.72965 -0.391711
0.364183 1.73628 -0.311198
0.393582 1.04899 1.04224
-0.00861397 1.80501 -0.493069
-0.0178711 1.71239 -0.355061
0.326842 1.84258 -0.534395
0.345234 1.75478 -0.491861
0.335617 1.73944 -0.441028
0.395177 1.79712 -0.0947793
0.490778 1.62367 -1.18921
0.446207 1.70623 0.175501
0.532377 1.51656 0.608535
0.845261 0.718622 1.22239
0.4846 1.069 1.269
0.7833 0.7667 1.315
0.0372589 1.74922 -0.375911
-0.0664063 1.73241 -0.272781
0.238437 1.91116 -0.593357
0.198809 1.86433 -0.432207
0.286656 1.73567 -0.470189
0.233006 1.79908 -0.463848
0.249084 1.74712 -0.415486
0.333522 1.716 -0.423744
0.493735 1.40918 0.694265
0.371019 1.32067 0.745019
0.361507 1.14371 0.814833
-0.104243 1.79484 -0.0203953
-0.178808 1.70213 0.157347
0.302663 1.74396 -0.335107
0.232844 1.82467 -0.3262
0.265265 1.84552 -0.171638
0.433911 1.71029 0.346314
0.4632 1.64276 0.525121
0.0794645 1.86605 -0.466984
-0.0545516 1.84621 -0.801054
0.0594448 1.83255 -0.383286
-0.0100817 1.83139 -0.163691
0.0947409 1.90401 -0.38744
-0.111971 1.75502 0.360358
-0.0837289 1.75478 0.32261
-0.167674 1.71467 0.322867
-0.3999 0.9601 1.284
-0.1835 1.1 1.28
0.136077 2.08317 -0.164722
0.199994 1.93094 -0.248332
0.0572567 1.9851 -0.213704
-0.0251619 1.85486 -0.0792812
-0.106661 1.799 0.300394
0.405089 1.7875 0.294228
-0.102848 1.33257 0.750217
0.0398418 1.27661 0.828981
0.06754 1.22322 0.889967
0.0995856 1.1415 1.15789
0.33669 1.62264 0.771923
0.0369774 1.93316 0.171622
-0.00191961 1.90127 0.280925
-0.1156 1.63644 0.769917
0.350244 1.78611 0.313944
0.224353 1.21668 0.85605
-0.0469383 1.84156 0.0445022
-0.001716 1.85922 0.309183
-0.0979895 1.75161 0.617836
-0.00147725 1.81337 0.477159
-0.203324 1.64933 0.483089
0.327497 1.92325 0.0188299
0.320245 1.83705 0.0216526
0.288822 1.86206 0.314322
-0.0445522 1.93483 0.00782833
0.0123793 1.87187 0.0706279
-0.0188398 1.91978 0.052498
0.0578178 1.88694 -0.0106378
-0.0424442 1.86211 0.35645
0.302901 1.89022 0.369821
0.298307 1.80023 0.716703
0.319015 1.76515 0.51786
0.175842 1.41301 0.788947
0.0109728 1.99399 0.0147977
0.0894409 1.95658 0.258625
0.0670673 1.92911 0.327361
0.213355 2.09913 -0.0410348
0.250816 1.88344 0.0760516
0.219181 1.94263 0.167253
0.178489 1.89189 0.0312678
0.2452 1.102 1.283
0.0596867 2.01522 0.03797
0.0667256 1.90328 0.301839
0.0609938 1.918 0.400033
0.255806 2.01306 0.0234356
0.167993 1.98123 0.0473798
0.104552 1.98261 0.0731906
0.189218 1.92807 -0.00601954
0.151181 1.97757 0.27546
0.251728 1.93161 0.272356
0.22677 1.93099 0.340032
0.159882 1.93042 0.404994
0.218478 1.85328 0.491861
0.154226 2.0313 0.0565406
0.156375 1.9108 0.317823
0.169118 1.66253 0.805519
0.0917196 2.10929 0.0182204
0.224322 1.89511 0.300311
0.12274 1.86044 0.469689
0.0575575 1.84851 0.711795
-0.582283 0.781033 0.0671594
-0.0915543 1.74257 -0.499515
0.0276372 2.07483 -0.0470644
0.09032 1.118 1.311
0.0190533 -0.06889 -0.4525
0.0686333 -0.102133 -0.7301
0.211567 -0.0933433 -0.6083
0.0243833 -0.07367 -0.912067
0.156487 -0.0103167 -0.2989
0.318067 -0.0649067 -0.652367
0.239233 -0.0220433 -0.358
0.12838 0.05778 -0.10224
-0.321733 0.0818267 -0.4122
-0.0703133 0.00411667 -0.312867
-0.197367 -0.0354767 -0.731
0.329233 -0.051358 -0.8359
-0.312633 0.0291567 -0.649667
-0.140583 -0.0238733 -0.9299
0.178483 -0.0513313 -0.9738
-0.03448 0.0840367 0.0692933
0.543467 0.0789367 -0.470133
0.447167 -0.002668 -0.896967
0.12427 0.0607567 -1.221
0.397133 0.138967 -0.0458
-0.4193 0.120563 -0.811767
-0.0579967 0.0655967 -1.20467
0.595233 0.218467 -0.23453
0.22746 0.0911733 0.13736
-0.561467 0.307167 -0.658667
-0.5236 0.264333 -0.820733
-0.3195 0.2244 0.139667
0.402633 0.0320887 -1.0752
-0.604567 0.5025 -0.472267
-0.466267 0.216067 -0.412233
-0.336733 0.10763 -1.01283
0.227653 0.17036 -1.333
-0.18074 0.0968333 0.380033
0.782167 0.341567 -0.4908
0.633633 0.18529 -1.0732
-0.620267 0.459767 -0.668833
-0.547733 0.4758 -0.273467
-0.405533 0.3423 0.0446333
-0.117313 0.2224 -1.338
0.736567 0.3628 -1.13933
0.457267 0.188777 0.297333
-0.634433 0.672233 -0.586867
-0.3666 0.2103 -1.1412
0.543867 0.2865 0.154603
-0.626233 0.65 -0.482667
-0.670833 0.618833 -0.4016
0.422833 0.215327 -1.32
0.451367 0.119426 0.615767
-0.6481 0.6773 -0.4258
-0.677633 0.696967 -0.448933
-0.721367 0.633767 -0.418667
-0.6515 0.577133 -0.303933
-0.691767 0.551 -0.273833
-0.578633 0.6066 -0.272867
-0.599967 0.621533 -0.326033
-0.542567 0.385267 -1.01013
-0.468133 0.344167 -1.12953
-0.0546733 0.0539567 0.458767
0.822467 0.3977 -0.934967
0.320933 0.037883 0.593767
0.129344 -0.05963 0.757333
-0.748967 0.624667 -0.353733
-0.7309 0.601033 -0.369767
-0.619333 0.600267 -0.276567
-0.2991 0.182733 0.368067
-0.039356 -0.00957667 0.647967
-0.678533 0.777133 -0.453967
-0.6232 0.788533 -0.553267
-0.704433 0.641767 -0.3203
-0.7347 0.603233 -0.2505
-0.719533 0.628033 -0.2325
0.943133 0.696667 -0.4319
0.8054 0.581467 -0.243267
0.701233 0.499333 -1.28533
0.144767 0.440833 -1.50567
-0.725 0.8042 -0.446133
-0.761633 0.708367 -0.4007
-0.722533 0.754233 -0.3982
0.888633 0.619567 -0.367467
0.8395 0.618133 -0.168367
0.809133 0.639967 -0.196933
0.3446 0.4884 -1.50567
-0.6468 0.9015 -0.398133
-0.732267 0.700667 -0.385267
-0.741167 0.755967 -0.303633
-0.734833 0.6872 -0.241967
-0.698833 0.572467 -0.187167
-0.503367 0.6309 -0.0819633
-0.448233 0.450733 0.3907
-0.452833 0.523433 -1.257
-0.3824 0.2474 0.478467
-0.407833 0.127973 0.8199
-0.211789 0.0283 0.6973
0.9118 0.836267 -0.4507
-0.662 0.920533 -0.357433
-0.716033 0.8751 -0.393067
-0.686 0.846867 -0.366133
-0.702967 0.805533 -0.393467
-0.6938 0.6608 -0.122633
-0.706167 0.690433 -0.142433
-0.6217 0.604433 -0.103507
0.909367 0.895367 -0.4038
0.9565 0.6504 -0.3311
0.955133 0.689933 -0.3037
0.963067 0.627667 -0.22369
0.920867 0.580867 -0.305333
0.892633 0.5765 -0.193033
0.190444 -0.119487 0.9432
-0.6128 0.910333 -0.416367
-0.6283 0.862567 -0.311367
-0.692567 0.7893 -0.3264
-0.650267 0.813333 -0.2911
-0.7158 0.7311 -0.107567
-0.533233 0.763767 -0.0381033
-0.334567 0.5068 -1.378
-0.164689 -0.0894333 0.9274
0.949233 0.735867 -0.332267
0.9319 0.592767 -0.114923
0.741633 0.6601 -0.0246767
0.620767 0.411033 0.241937
0.5679 0.501833 -1.39367
0.334133 -0.077337 0.923
-0.6082 0.9051 -1.01243
-0.579133 0.727467 -1.08273
-0.491 0.798167 0.0538967
-0.470967 0.6468 0.138267
-0.474767 0.685833 0.0424033
-0.224313 0.644133 -1.48733
0.896233 0.805467 -0.3572
0.8597 0.842733 -0.3471
0.969267 0.667067 -0.228767
0.9333 0.656667 -0.134663
0.831133 0.655 -0.08344
0.757533 0.711267 -0.03446
0.712767 0.797033 0.07054
0.676 0.5252 0.14371
-0.629167 0.925033 -0.268267
-0.630667 0.802333 -0.2342
-0.6704 0.669533 -0.03917
-0.5038 0.730267 -1.24433
-0.394333 0.204967 0.6554
0.841933 1.13967 -0.617467
0.8961 0.777433 -0.3014
0.815533 0.838667 -0.302433
0.978567 0.7062 -0.1953
0.940867 0.656533 -0.16714
0.8089 0.797867 0.0681733
0.783033 0.808767 0.0457833
0.787967 0.719167 -0.0574833
0.800767 0.676833 -0.112007
0.696867 0.745867 0.0803233
0.08444 0.967667 -1.55333
-0.617733 0.918933 -0.220567
-0.6067 0.888633 -0.157467
-0.684833 0.7611 -0.0623667
-0.5048 0.8419 0.0950267
0.828867 1.23733 -0.7352
0.862867 1.22733 -0.352767
0.856833 1.0844 -0.313233
0.902833 0.9092 -0.309967
0.863967 0.806433 -0.266433
0.925367 0.7414 -0.1918
0.924233 0.738367 -0.06154
0.913133 0.663467 -0.0271533
0.8442 0.686433 -0.00652667
-0.600367 1.05707 -0.374567
-0.579567 0.8517 -0.1751
-0.604333 0.901933 -0.120837
-0.5765 0.875433 -0.0908067
0.878033 0.7772 -0.218867
0.8422 0.866433 -0.160433
0.792267 0.854 -0.1748
0.911533 0.740867 -0.135323
0.9408 0.753033 -0.0978333
0.852767 0.744333 -1.022
0.877133 0.6972 0.0224833
0.527133 0.666667 -1.45967
0.398933 0.651833 -1.51733
-0.5962 0.943967 -0.114737
-0.562067 0.8184 -0.13277
-0.602733 0.900333 -0.0671267
-0.493933 0.2978 0.825833
-0.262647 0.896733 -1.468
0.823333 0.7848 -0.197467
0.8279 0.816033 -0.0526833
0.894967 0.789 -0.0129967
0.824767 0.847367 0.118213
0.754267 0.868367 0.0838867
0.714433 0.864533 0.08562
0.349167 0.7538 -1.533
-0.587733 1.11063 -0.5226
-0.615533 0.9522 -0.0421767
-0.581167 0.969333 -0.0597567
-0.6265 0.9047 -0.00048
-0.593367 0.9132 0.1121
0.793133 0.7896 -0.1663
0.791567 0.854167 -0.0445067
0.868233 0.7886 0.08745
0.6645 0.883233 0.2409
0.691133 0.666133 0.222907
0.605467 0.366 0.656267
-0.6551 0.879767 0.0649533
-0.579133 0.955 0.0929267
0.806867 0.9495 -0.0187233
0.8558 0.8739 -0.03337
0.890333 0.8273 -0.00495333
0.830933 0.911667 0.123533
0.745 0.927867 0.108763
0.6683 0.6021 0.517267
0.655033 0.443667 0.780667
-0.616167 0.955567 0.0662433
-0.5948 0.965267 0.0326567
-0.468233 0.854767 0.2068
-0.423867 0.966233 -1.346
-0.10396 1.07073 -1.51833
0.8106 0.963767 -0.108007
0.821367 0.922167 -0.0283433
0.8424 0.9015 -0.0199433
0.8156 0.948733 0.0373567
0.8744 0.8529 0.09277
0.791567 0.9457 0.1188
0.4748 -0.0452837 1.01173
-0.561933 0.982667 -0.01786
-0.538933 0.0640733 1.08773
-0.0175 -0.2785 1.26167
0.781133 0.888567 -0.0524433
0.864633 0.8748 0.0561533
0.876933 0.8549 0.00847333
0.786 0.960867 0.06924
0.581 0.8667 -1.41167
0.376167 -0.2236 1.18933
-0.475567 0.9867 0.320467
-0.5275 0.4307 0.9028
-0.657533 0.1051 1.16933
-0.384267 -0.10336 1.14973
0.7529 1.01937 0.0730733
0.798333 0.9808 -1.136
0.717733 1.0127 0.2791
0.648767 0.820633 0.435267
0.657433 0.666267 0.649567
0.7599 0.9697 -1.21867
0.422633 -0.233567 1.27033
-0.531133 1.42267 -0.364967
-0.2281 -0.230533 1.26567
0.779033 1.49333 -0.492967
0.7968 1.30767 -0.8823
0.856567 0.2805 1.13303
-0.516133 1.0785 0.2717
0.7738 1.50733 -0.4024
0.680433 1.17223 -1.279
0.6386 -0.126217 1.281
-0.450433 1.58433 -0.4877
-0.491633 1.49067 -0.7023
-0.552467 1.34767 -0.212763
-0.534 1.27 0.0619967
-0.424867 1.03087 0.430567
-0.365533 1.0072 0.469133
-0.731067 0.0967667 1.26
-0.378833 -0.171533 1.24633
0.6839 1.631 -0.477533
0.799167 1.25 -0.0193533
0.648133 0.789633 0.6273
0.773433 0.397333 1.03523
0.254553 1.12027 -1.52133
0.268387 1.34767 -1.466
-0.461567 1.563 -0.809567
-0.5226 1.39 -0.107403
-0.511567 1.2539 -1.1475
-0.4855 1.31567 0.17006
-0.3729 0.956367 0.525667
-0.4908 0.563233 0.7581
-0.4192 1.18823 -1.313
-0.607033 -0.0124333 1.275
0.708767 1.57267 -0.408867
0.748667 1.07593 0.211433
0.7607 -0.0496367 1.25133
-0.447767 1.60833 -0.571367
-0.446467 1.45167 -1.1355
-0.410167 0.877767 0.679933
-0.107473 1.33767 -1.45267
0.09476 1.462 -1.43233
0.636933 1.681 -0.4521
0.660967 1.68233 -0.600967
0.772633 1.32867 -1.01497
0.7016 1.10477 0.4283
0.6979 0.6387 0.927967
-0.470367 0.755733 0.922633
-0.261493 1.38567 -1.36933
0.610767 1.65233 -0.413467
0.7702 1.48033 -0.740133
0.5878 1.252 -1.34667
0.498 1.38133 -1.355
0.891467 0.06753 1.25067
-0.3594 1.72 -0.632067
-0.391233 1.10133 0.513933
0.138673 1.661 -1.28067
0.696233 1.63767 -0.698
0.786167 1.39733 -0.09178
0.6873 1.48833 0.0770867
0.6427 0.7791 0.908833
0.946367 0.151783 1.27867
-0.3196 1.691 -0.450233
-0.2987 1.66967 -0.4179
-0.3155 1.67633 -0.422133
-0.3353 1.64967 -0.419833
-0.358167 1.7 -0.721133
-0.367967 1.575 -0.3785
-0.375067 1.59333 -0.339133
-0.488667 1.50033 -0.13194
0.581267 1.716 -0.429733
0.603367 1.72967 -0.480533
0.576167 1.74367 -0.4532
0.594433 1.774 -0.5426
0.677833 1.62233 -0.292067
0.615833 1.0028 0.482967
-0.3219 1.73133 -0.5185
-0.2838 1.73133 -0.477367
-0.2334 1.76233 -0.474967
-0.329567 1.63067 -0.368533
-0.304633 1.67167 -0.394733
-0.467067 1.456 0.05816
-0.814867 0.2788 1.252
0.527233 1.79733 -0.478
0.568633 1.73133 -0.4341
0.599867 1.67867 -0.3447
0.6987 1.61167 -0.19066
0.7184 1.29333 0.302047
0.538433 1.0767 0.619167
0.547467 0.983767 0.6046
0.9586 0.327367 1.20033
0.9969 0.273467 1.24633
-0.202933 1.77867 -0.522867
-0.2764 1.72867 -0.440933
-0.2596 1.722 -0.4367
-0.2917 1.674 -0.3338
-0.315633 1.647 -0.305367
-0.29156 1.509 -1.27467
0.481967 1.797 -0.5007
0.429933 1.80933 -0.491833
0.494 1.803 -0.4638
0.5263 1.77167 -0.4501
0.549767 1.71733 -0.415833
0.666033 1.42933 0.257513
0.698267 1.25633 0.468633
0.6237 0.821433 1.02073
-0.189933 1.765 -0.500667
-0.224933 1.734 -0.4226
-0.192967 1.74633 -0.436833
-0.382633 1.65733 -0.153187
-0.4479 1.54333 -0.984467
-0.405333 1.50267 0.137733
-0.372967 1.454 0.365567
-0.801333 0.420933 1.27167
-0.0120267 1.73833 -1.18067
0.4966 1.79867 -0.529233
0.4339 1.80733 -0.473833
0.412467 1.77667 -0.465067
0.493433 1.86133 -0.593667
0.545367 1.807 -0.5541
0.507433 1.75767 -0.431833
0.683533 1.58067 -1.00027
-0.153793 1.81233 -0.535433
-0.131047 1.72933 -0.423667
-0.109873 1.71967 -0.3955
-0.235867 1.732 -0.3549
-0.345267 1.666 -0.992767
-0.362933 1.63333 0.0277133
-0.194193 1.639 -1.21067
-0.3905 1.313 0.576367
-0.286567 1.0225 0.6825
0.442833 1.87267 -0.571167
0.457567 1.826 -0.5354
0.4217 1.76233 -0.439133
0.460767 1.76167 -0.419333
0.519967 1.837 -0.630433
0.498333 1.75533 -0.3655
0.482333 1.751 -0.332767
0.5355 1.724 -0.309967
0.638067 1.6 0.0743933
0.782033 0.537833 1.06287
0.954 0.468067 1.211
-0.119033 1.86833 -0.569467
-0.164673 1.87467 -0.593233
0.000533333 1.70967 -0.449033
-0.0589133 1.70933 -0.407133
-0.14876 1.74867 -0.395233
-0.125593 1.74 -0.3675
-0.515333 0.7634 1.13
0.437467 1.85067 -0.692667
0.4503 1.75967 -0.386333
0.358167 1.74033 -0.3608
0.418167 1.742 -0.329933
0.506 0.9505 1.02107
0.00116667 1.74233 -0.4781
-0.298233 1.80333 -0.622767
-0.304167 1.74533 -0.8335
0.00219 1.712 -0.407767
-0.0736033 1.718 -0.3462
-0.04581 1.71633 -0.385567
-0.1721 1.73333 -0.336233
0.400433 1.83 -0.529733
0.355267 1.76 -0.4689
0.470733 1.74933 -0.224857
0.605067 1.58067 -1.12997
0.551867 1.63767 0.168953
0.598133 1.48133 0.447933
0.660167 0.886733 1.2
0.7217 0.848967 1.27267
0.343467 1.67833 -1.22667
0.529167 1.513 -1.26733
0.0309867 1.725 -0.3943
-0.0614133 1.715 -0.3083
-0.13767 1.716 -0.2895
0.263133 1.87833 -0.5274
0.2465 1.75267 -0.459433
0.319433 1.733 -0.467467
0.311767 1.72067 -0.416933
0.402333 1.75733 -0.23639
0.5745 1.39367 0.627367
0.4838 1.29633 0.688333
0.466433 1.20467 0.695233
0.4599 1.06307 0.712167
0.419367 1.746 -1.0893
-0.201433 1.744 0.02836
0.2814 1.731 -0.385233
0.266033 1.80333 -0.273
0.5037 1.626 0.3855
0.4863 1.002 1.14733
0.08874 1.90333 -0.553467
0.03114 1.895 -0.673167
0.05773 1.76833 -0.409433
0.0295667 1.788 -0.451967
-0.00482333 1.72633 -0.3342
0.2631 1.765 -0.3591
0.4984 1.64333 0.268867
0.5385 1.56067 0.4787
0.384533 1.205 0.767267
0.439467 1.0304 0.826467
0.180913 1.881 -0.495
-0.205367 1.78367 -0.920533
-0.116747 1.77367 -0.161853
-0.201203 1.73233 -0.206487
0.5386 1.736 -0.06447
0.124403 1.86667 -0.438133
-0.12921 1.79967 -0.0788067
-0.11978 1.73633 0.327333
-0.326967 0.991967 1.22033
0.4783 1.729 0.04863
0.142157 1.95133 -0.336867
0.174567 1.96167 -0.2954
0.0736367 1.90967 -0.347933
0.09747 2.004 -0.2661
0.167647 1.87367 -0.7264
0.00705333 1.79633 -0.273667
-0.03719 1.82333 -0.0887567
-0.122947 1.74933 0.321033
0.448767 1.71833 0.279567
-0.0100533 1.83167 -0.993067
-0.164033 1.72933 0.269467
-0.0765133 1.22433 0.803967
-0.0123733 1.20567 0.844333
-0.0688333 1.104 1.10413
0.448567 1.534 0.710467
-0.0952 1.80567 0.219933
-0.0318233 1.88567 0.26
-0.268933 1.483 0.681733
0.4056 1.74733 0.316733
0.314133 1.22533 0.7952
-0.0546333 1.82633 -0.0202933
-0.0429197 1.854 0.3032
-0.0652097 1.794 0.3147
-0.0978787 1.74467 0.534367
0.219733 1.86667 -0.257733
0.267333 1.90133 -0.131877
0.308267 1.838 -0.07542
0.353233 1.798 0.308233
0.393933 1.46533 0.7493
0.0188567 1.89333 -0.15837
-0.00825 1.924 -0.0956633
-0.0435167 1.86867 -0.00263333
-0.0103133 1.886 0.0612
0.0253267 1.888 0.0272733
-0.0587353 1.81167 0.39
0.3103 1.87567 -0.02514
0.310333 1.846 0.3257
0.3595 1.73933 0.606267
0.441467 1.65833 0.6352
0.268033 1.32067 0.780333
0.01645 1.93033 0.0118967
-0.0288533 1.956 0.0400667
0.0394267 1.94233 0.242933
0.00553033 1.89267 0.325233
0.1884 2.05533 -0.158253
0.307 1.885 0.0575133
0.2058 1.898 0.08442
0.15282 1.315 0.815267
0.11186 1.25367 0.840833
0.141173 1.205 0.961867
0.282167 1.125 1.05863
0.0452067 1.95833 0.00445
0.04583 1.92033 0.2859
0.0274133 1.91867 0.359467
0.231033 2.02767 -0.0933033
0.183933 1.93767 0.07181
0.3851 1.67067 0.722067
0.1983 1.15267 1.10163
0.368467 1.076 1.20933
0.120973 1.96733 0.13825
0.163573 1.98233 0.0938267
0.0735033 1.95067 0.0225
-0.190067 1.628 0.660633
0.229967 1.942 0.0295767
0.293633 1.95067 0.0652267
0.2086 1.97033 0.238767
0.234367 1.937 0.3712
0.233233 1.903 0.414067
0.2739 1.81333 0.583233
0.140573 2.00767 0.0616433
0.101683 2.012 0.0636467
0.128117 1.929 0.348533
0.0380533 1.348 0.7905
0.202267 1.992 0.02604
0.2913 1.554 0.785967
0.253167 1.48067 0.782167
0.171167 1.92167 0.00318333
0.169467 1.98033 0.0244333
0.0936967 2.058 0.05375
0.2 1.90967 0.3169
0.174133 1.88233 0.4346
0.059288 1.845 0.550667
-0.0508333 1.77867 0.724767
0.0864 1.48467 0.784
0.222 2.06633 0.0286133
0.2636 1.733 0.789333
0.15672 2.097 0.02695
0.181433 1.93133 0.356633
-0.0111453 1.825 0.614767
0.0350333 1.746 0.793533
0.133533 1.85933 0.547767
0.15272 2.126 -0.0454667
0.188133 1.85467 0.655567
0.9923 0.414167 1.257
-0.4068 0.879533 0.841233
0.644833 0.8855 0.3605
-0.190233 1.15733 0.725667
-0.5789 0.626033 -0.216733
-0.611633 0.605867 -0.191033
0.273033 -0.0174803 0.737133
-0.0457167 1.899 0.05013
0.0941533 1.91067 0.313067
0.00978667 0.5967 -1.547
0.274967 1.962 -0.0602267
0.741533 0.753667 1.13533
-0.623967 0.8489 -0.0575233
-0.670167 0.7684 -0.189133
0.6312 1.37967 0.5384
-0.2232 1.61767 0.561367
-0.262467 0.2873 -1.31133
0.654433 0.931967 -1.34167
0.457133 0.384967 -1.413
0.772467 0.2575 -0.715567
-0.707367 0.6713 -0.309967
-0.7198 0.721867 -0.355467
0.988733 0.682167 -0.411867
0.01694 1.157 0.965367
0.537233 0.20025 0.721467
0.646233 1.11043 0.496367
0.00261333 0.0553533 -0.13314
0.2784 1.83867 0.4549
0.5862 1.276 0.625667
0.7003 0.337967 -0.263997
0.02192 1.76967 -0.349333
0.977567 0.582 -0.321267
0.9722 0.598933 -0.200857
-0.469433 0.8824 1.207
-0.246467 1.70433 -1.0798
0.586867 1.751 -0.5072
0.559667 1.765 -0.479867
0.358933 0.126243 0.162867
0.326467 1.90267 -0.6644
0.3627 1.79533 0.3342
0.10217 1.94233 0.378467
0.174033 1.804 0.773467
0.6877 0.937133 0.192033
-0.0853367 1.78533 0.337233
-0.043133 1.82033 0.326333
0.407033 1.69433 0.470867
-0.6206 0.7229 0.0321967
-0.654367 0.829 -0.4416
0.607167 1.77667 -0.5993
0.678967 0.7011 0.3871
0.490367 0.130083 -1.16687
0.961267 0.713067 -0.129543
0.9447 0.6984 -0.09325
-0.15112 1.81167 -0.8638
0.5995 1.66733 -0.3845
-0.310867 -0.0338267 0.9562
0.142747 1.85067 -0.8888
0.193033 1.882 0.0157933
-0.3005 0.985667 0.749767
0.551133 1.717 -0.3825
0.198327 0.06183 0.324327
-0.304867 1.70367 -0.208487
-0.544333 0.2588 0.973033
0.8845 0.8778 -0.318233
0.842133 0.509467 -0.447567
0.830467 0.5803 -0.320667
-0.6026 0.561733 -0.976
0.356367 1.82633 -0.945033
0.856333 0.9408 -0.3303
-0.128427 1.87567 -0.681367
-0.119547 1.777 -0.5225
0.2789 1.792 -0.5003
0.2515 1.83533 -0.4898
-0.557067 0.8281 0.0728933
-0.546167 0.878 0.0805267
0.159853 0.746233 -1.56267
-0.7439 0.732367 -0.439367
0.875133 0.680933 1.274
0.8509 0.954667 -0.376633
-0.4737 1.507 -0.399333
-0.0671 1.798 0.0923067
0.767467 0.136433 1.1227
-0.0400467 1.836 0.134877
-0.141353 1.75867 -0.500867
-0.09086 1.747 -0.470233
-0.5882 0.777033 1.26967
0.826533 0.871 -0.08133
0.6669 0.584467 0.7825
0.0199503 1.88567 0.298367
0.0463237 1.898 0.308767
0.388667 1.77567 -0.4961
0.3765 1.73333 -0.4272
-0.7217 0.6814 -0.4413
-0.647767 0.473533 1.106
-0.5345 1.394 -0.682433
-0.632133 0.818167 -0.842733
-0.3574 0.1353 0.673067
0.867567 0.538033 -0.9043
-0.173283 0.0278267 -1.04963
0.3491 0.0609233 -0.2324
0.336733 1.79967 0.0976233
0.307733 1.83867 0.144987
0.3122 1.766 -0.2797
0.328733 1.79767 -0.19359
-0.450633 0.772 0.261533
-0.468233 0.341967 -0.2236
0.06212 0.292433 -1.426
-0.574733 1.1239 -1.03187
-0.272933 1.66533 0.124213
-0.533633 0.564033 -0.1766
0.4916 0.213243 0.454667
0.677433 0.3574 0.8985
0.00620667 2.00933 -0.0835233
0.274333 1.90767 0.339267
0.2436 1.89567 0.3159
-0.665667 0.592333 -0.102873
0.821533 1.41333 -0.235093
0.768767 1.51233 -0.26706
0.7117 1.60833 -0.543033
-0.295333 1.787 -0.5615
-0.218567 1.819 -0.555867
-0.6118 0.605667 -0.428567
0.4192 0.0139267 -0.447
-0.0444933 1.71467 -0.467567
0.840333 0.873733 -0.273567
-0.647033 0.8367 0.0424133
-0.625 0.904433 0.0324567
0.3267 1.85967 0.297833
0.253067 1.89567 0.291933
0.656567 1.65067 -0.06864
0.7339 0.729433 -1.28133
0.0506367 1.89233 -0.260233
0.3258 1.724 -0.353367
0.0102733 1.11933 1.26533
0.021144 -0.231933 1.12827
-0.609667 0.9763 -0.497533
0.231717 0.00772867 -1.11633
0.627167 1.66333 -0.2823
0.530067 1.738 -0.176723
0.6002 0.3707 0.4299
0.6282 0.442633 0.5258
-0.656033 0.613733 1.16867
-0.7281 0.6126 1.246
-0.3671 1.2 0.592567
-0.2456 1.253 0.676333
0.960033 0.741667 -0.266167
0.9449 0.757633 -0.256767
0.825533 0.770733 -0.0978733
0.765133 0.800033 -0.134317
-0.608933 0.785033 -0.13167
-0.6446 0.790633 -0.0801033
-0.2425 1.736 -0.4001
-0.2019 1.746 -0.409167
0.187344 -0.1929 1.07327
0.8563 0.890533 -0.7766
-0.571333 1.1728 -0.15303
-0.5556 1.07243 -0.0402033
0.492267 1.79733 -0.8109
-0.0186333 1.559 0.7908
0.229267 1.78933 -0.404567
-0.3713 1.58533 -0.404167
-0.2269 1.65167 0.251533
-0.232033 1.64133 0.3666
-0.4732 0.5896 0.499567
-0.545967 1.363 -0.460333
0.09932 1.95333 0.2849
0.12127 1.93133 0.301667
0.7352 0.507033 -0.143363
0.710233 0.5567 -0.0327233
-0.11362 1.76867 0.0635767
-0.183367 1.44667 0.743133
-0.620367 0.837833 -0.459833
0.339567 1.72667 -0.405533
0.3743 1.75367 -0.384467
-0.18522 1.83633 -0.705267
0.834067 0.8491 -0.216167
0.8458 0.868267 -0.194667
-0.684833 0.704233 -0.0281633
-0.543633 0.6839 -0.119563
-0.6087 0.851567 -0.254467
-0.612267 0.869567 -0.227033
0.0621533 0.05712 0.28716
-0.495167 0.15864 0.949433
0.3809 1.77933 0.0430133
0.6024 0.848233 0.7411
-0.462033 1.243 0.4201
-0.4439 1.31633 0.347233
0.00535133 1.87267 0.413333
0.752667 1.205 0.194047
-0.738367 0.746067 -0.223267
-0.744467 0.727867 -0.2071
-0.302667 1.54033 0.444533
0.509033 0.949567 0.846
-0.642433 0.5934 -0.796767
-0.6429 0.6722 -0.7338
0.351 1.791 0.412333
-0.3093 0.996767 1.06193
-0.2258 1.04883 0.972067
0.0503733 1.89667 0.0622467
0.0697933 1.93133 0.06492
-0.582467 1.0762 -0.244533
-0.598667 0.9424 -0.197933
0.842967 0.941967 -0.171913
0.876933 0.8961 -0.124347
0.358367 1.90033 -0.579667
0.339367 1.877 -0.554367
-0.450967 0.503967 0.185267
0.401733 0.960233 -1.504
0.505367 1.0583 -1.44033
0.07569 2.074 -0.142963
0.369767 1.79433 -0.519233
0.3191 1.772 -0.505133
-0.5929 1.01763 -0.738233
-0.566167 1.24467 -0.8251
0.705167 0.924033 0.110497
0.984433 0.7675 -0.4045
0.937833 0.886633 -0.395433
0.7918 0.841333 -0.117417
0.8277 1.07183 -0.164893
0.802567 1.1221 -0.03706
-0.0411333 -0.0894067 -0.6334
0.563967 0.11955 0.908333
0.6546 0.199033 0.960967
0.3121 1.14333 0.908167
0.6288 0.845 0.543167
0.519 0.2315 -0.0247967
0.633733 1.717 -0.825467
-0.00882 1.84267 -0.5023
-0.0251867 1.87767 -0.5379
-0.115007 1.756 -0.457667
-0.0800867 1.719 -0.4353
-0.166 1.706 0.390833
-0.111312 1.732 0.441767
-0.6642 0.819367 -0.0397867
0.080108 1.89633 0.432333
0.099888 1.868 0.4375
-0.662667 0.808333 -0.00878333
-0.648533 0.836967 0.00947667
0.802267 1.41 -0.593033
-0.208233 0.0738667 -0.267667
0.6806 0.7834 0.151473
0.819267 0.0656467 1.19867
0.617233 -0.0365867 1.14033
0.592433 -0.11222 1.17633
0.302333 1.72933 -0.432767
0.2696 1.729 -0.429567
-0.171707 0.12254 0.0125
-0.20114 0.1385 0.151633
-0.382233 1.664 -0.480467
-0.3556 1.62667 -0.434567
-0.4328 0.8221 0.4158
-0.456133 0.780333 0.5028
0.375833 1.802 0.2214
0.306133 1.89267 0.248167
0.04414 1.83767 -0.451867
0.0804367 1.862 -0.421367
0.11765 1.959 0.203567
0.152683 1.97533 0.238767
-0.06498 1.76033 -0.507433
-0.0433 1.78733 -0.509
-0.551433 1.05447 0.0369967
-0.5465 1.10617 0.09077
0.217333 1.82633 -0.410367
0.204867 1.86533 -0.349633
0.844667 0.610467 1.15833
0.916733 0.5755 1.22433
0.962633 0.7294 -0.369367
0.934233 0.779867 -0.378667
0.923667 0.698633 -0.02406
0.910767 0.738467 -0.0248267
-0.596767 0.6864 -0.02484
-0.557933 0.7576 -0.00460667
-0.628967 0.8293 0.0840033
-0.604267 0.8633 0.104467
0.209467 1.90967 0.292933
0.185567 1.95133 0.289433
0.638833 0.11437 -0.724367
0.5859 0.07706 -0.877633
-0.4283 1.56367 -0.322333
-0.446633 1.571 -0.233267
0.871967 0.816233 -0.585767
0.861967 0.8933 -0.439467
0.877533 0.565733 -0.641667
0.8784 0.697733 -0.568533
0.911033 0.7585 -0.443367
0.852367 0.947167 -0.255767
0.8704 0.9243 -0.2438
-0.6635 0.248433 1.10767
-0.733367 0.330267 1.16367
-0.0121967 2.011 -0.000556667
0.0775967 2.114 -0.0518433
0.04854 2.079 0.0135033
0.02823 2.04067 0.00535
0.3487 1.72733 -0.4386
0.3751 1.763 -0.455867
-0.233067 1.75767 -0.4567
-0.1843 1.76333 -0.4667
0.153173 1.12 1.26633
3  437 0 428
3  430 1 429
3  434 1 430
3  435 2 432
3  439 8 433
3  440 0 436
3  1208 0 437
3  1189 0 438
3  1215 12 443
3  1091 8 444
3  1246 8 445
3  1105 6 446
3  1006 7 447
3  458 13 448
3  1006 25 451
3  453 11 452
3  465 10 454
3  463 26 456
3  1067 13 458
3  474 20 459
3  485 33 460
3  988 34 461
3  1246 18 462
3  1078 30 464
3  1074 10 465
3  1075 19 466
3  501 40 467
3  471 41 468
3  1163 31 469
3  479 46 473
3  987 36 474
3  487 25 475
3  1061 50 477
3  1061 47 478
3  514 53 480
3  482 30 481
3  1090 30 482
3  1035 56 483
3  1066 34 486
3  1029 25 487
3  493 57 488
3  497 60 489
3  518 29 492
3  1016 42 494
3  1104 43 495
3  511 60 496
3  498 60 497
3  1253 66 499
3  508 69 500
3  1099 40 501
3  1075 39 502
3  1045 51 504
3  525 73 505
3  1034 68 506
3  508 70 507
3  987 32 509
3  522 78 510
3  1158 80 512
3  989 63 513
3  1147 54 515
3  518 84 516
3  1024 87 519
3  1065 33 520
3  1253 90 521
3  525 93 524
3  527 63 526
3  1084 52 528
3  532 98 530
3  544 101 531
3  559 102 532
3  534 70 533
3  1122 59 535
3  1148 92 537
3  565 105 539
3  582 106 540
3  552 107 541
3  555 39 542
3  591 75 545
3  578 110 546
3  1108 41 547
3  975 49 549
3  1064 113 550
3  554 116 552
3  554 38 553
3  610 117 555
3  1236 118 556
3  573 100 558
3  573 122 559
3  616 125 562
3  1015 128 566
3  1123 129 569
3  588 132 570
3  588 119 571
3  592 135 574
3  1044 117 579
3  1170 78 580
3  594 140 581
3  1119 106 582
3  640 142 583
3  673 143 584
3  586 131 585
3  1187 145 586
3  1185 97 587
3  597 147 589
3  1238 122 590
3  1237 150 591
3  607 140 594
3  606 139 595
3  607 153 596
3  599 154 598
3  1145 154 599
3  601 134 600
3  1020 134 601
3  1123 158 602
3  657 71 604
3  1170 139 606
3  619 152 608
3  660 84 609
3  641 163 610
3  1116 164 612
3  1238 149 613
3  616 124 615
3  1104 151 618
3  620 152 619
3  1206 170 621
3  630 171 622
3  1011 174 626
3  993 48 628
3  1094 128 629
3  644 180 631
3  647 184 634
3  667 176 636
3  1080 177 637
3  699 163 641
3  707 137 642
3  1187 181 643
3  653 180 644
3  655 183 645
3  1211 104 649
3  661 190 651
3  671 108 652
3  1055 180 653
3  655 182 654
3  663 185 656
3  986 71 657
3  1122 104 658
3  675 142 659
3  1062 197 660
3  1188 199 663
3  702 201 665
3  1018 175 666
3  1056 176 667
3  677 200 668
3  678 205 669
3  681 206 670
3  686 108 671
3  1207 209 672
3  711 211 673
3  1050 212 674
3  1230 142 675
3  1086 130 676
3  703 217 678
3  1217 218 679
3  1063 207 680
3  694 206 681
3  1230 215 682
3  722 196 683
3  722 224 684
3  700 191 686
3  1087 227 687
3  1188 144 688
3  807 213 690
3  777 221 693
3  699 114 695
3  1219 236 697
3  1132 84 698
3  226 700 208
3  720 217 703
3  970 240 706
3  716 228 709
3  1017 227 710
3  807 187 713
3  1023 228 716
3  1085 250 725
3  770 229 726
3  1153 252 727
3  217 728 253
3  1218 254 729
3  747 257 730
3  735 260 734
3  763 260 735
3  1248 206 736
3  751 247 737
3  1005 263 739
3  1004 227 740
3  753 216 741
3  971 174 742
3  1217 256 743
3  1264 270 745
3  747 259 746
3  1257 198 749
3  767 263 750
3  769 247 751
3  805 275 752
3  1086 216 753
3  771 201 754
3  756 202 755
3  1193 202 756
3  758 214 757
3  773 280 759
3  1264 255 760
3  795 241 764
3  766 273 765
3  783 273 766
3  768 263 767
3  1028 247 769
3  833 277 770
3  820 288 772
3  775 282 774
3  1265 282 775
3  1248 262 776
3  793 239 777
3  794 262 778
3  1155 293 779
3  294 780 226
3  795 295 781
3  1263 297 784
3  802 298 785
3  1195 211 788
3  1039 300 789
3  1199 290 790
3  813 302 791
3  1120 271 792
3  1003 239 793
3  1112 305 796
3  972 225 797
3  799 296 798
3  801 286 800
3  804 276 803
3  805 276 804
3  810 281 809
3  1089 281 810
3  824 315 811
3  1199 301 812
3  827 318 814
3  1126 320 816
3  1142 309 817
3  1142 321 818
3  845 310 819
3  859 324 821
3  867 304 823
3  826 302 825
3  1179 284 828
3  1263 285 829
3  1107 275 830
3  875 331 832
3  983 277 833
3  835 333 834
3  335 835 334
3  837 232 836
3  860 336 838
3  840 337 839
3  869 337 840
3  1041 326 841
3  1214 340 842
3  1141 343 844
3  890 344 846
3  848 268 847
3  865 230 849
3  1138 347 851
3  861 349 852
3  861 350 853
3  863 251 854
3  857 313 856
3  859 315 858
3  999 336 860
3  1161 230 865
3  1022 295 867
3  872 357 868
3  1098 267 870
3  1200 359 873
3  1002 362 874
3  1152 331 875
3  920 365 877
3  879 358 878
3  1025 355 880
3  1100 356 881
3  905 357 882
3  886 361 883
3  1022 355 885
3  891 348 886
3  948 370 887
3  992 372 888
3  1166 363 889
3  1051 348 891
3  897 376 892
3  1139 377 893
3  1192 346 895
3  984 382 899
3  911 351 901
3  1072 351 902
3  1081 366 906
3  976 380 908
3  1167 391 909
3  1012 359 910
3  1008 378 912
3  944 394 913
3  917 390 916
3  976 390 917
3  928 398 918
3  1058 381 919
3  930 365 920
3  1069 386 921
3  931 402 922
3  924 379 923
3  933 379 925
3  934 323 926
3  1009 399 929
3  979 365 930
3  936 402 931
3  936 410 935
3  945 410 936
3  949 411 939
3  1226 412 941
3  1082 414 942
3  946 410 945
3  1009 415 947
3  960 417 949
3  1260 405 954
3  963 414 955
3  966 416 956
3  964 423 957
3  1127 370 959
3  1010 419 961
3  968 416 966
3  1259 420 967
3  1113 225 972
3  1058 399 977
3  1044 72 978
3  1202 161 981
3  1164 393 996
3  1028 276 1023
3  1036 249 1025
3  1166 306 1027
3  1256 162 1031
3  1093 120 1032
3  1254 97 1037
3  1143 314 1038
3  1242 424 1042
3  312 1046 335
3  1051 389 1049
3  1210 189 1050
3  1198 317 1053
3  1111 294 1054
3  1172 180 1055
3  1110 197 1062
3  1133 207 1063
3  1152 386 1069
3  1101 349 1071
3  1191 177 1080
3  1178 366 1081
3  1097 421 1083
3  1227 425 1092
3  1206 128 1094
3  1243 421 1097
3  427 1102 363
3  1231 350 1128
3  1160 384 1131
3  1226 398 1134
3  1255 154 1145
3  1254 145 1171
3  1185 118 1184
3  1228 324 1196
3  1215 10 1208
3  1252 158 1249
3  1261 426 1258
3  1260 420 1259
3  1261 405 1260
3  1263 328 1262
3  404 1266 427
3  1189 1 428
3  432 2 428
3  1189 3 429
3  431 4 429
3  433 5 430
3  441 6 431
3  442 4 431
3  434 7 432
3  1091 5 433
3  1068 7 434
3  451 9 435
3  995 2 435
3  1208 10 436
3  457 11 436
3  995 12 437
3  440 13 438
3  441 3 438
3  442 14 439
3  445 8 439
3  448 13 440
3  1067 6 441
3  1105 14 442
3  995 9 443
3  1150 15 443
3  1245 16 444
3  450 17 444
3  455 18 445
3  449 19 446
3  459 20 446
3  1068 17 447
3  1194 21 447
3  453 22 448
3  1067 23 449
3  466 19 449
3  998 24 450
3  1194 17 450
3  1029 9 451
3  457 26 452
3  463 27 452
3  483 22 453
3  1216 28 454
3  492 29 454
3  1105 20 455
3  1019 18 455
3  464 30 456
3  1090 31 456
3  1074 26 457
3  470 23 458
3  1075 32 459
3  492 28 460
3  1216 15 460
3  1033 35 461
3  998 16 461
3  1019 36 462
3  467 37 462
3  1162 27 463
3  1074 38 464
3  1175 38 465
3  985 39 466
3  486 37 467
3  1079 25 468
3  1006 21 468
3  472 42 469
3  495 43 469
3  484 44 470
3  985 23 470
3  1194 24 471
3  547 41 471
3  1090 45 472
3  476 42 472
3  478 47 473
3  476 45 473
3  1019 20 474
3  1079 48 475
3  993 49 475
3  477 42 476
3  494 42 477
3  490 51 478
3  491 52 479
3  480 46 479
3  490 46 480
3  1078 54 481
3  973 55 481
3  491 45 482
3  484 22 483
3  517 44 484
3  1150 57 485
3  493 33 485
3  988 37 486
3  975 57 487
3  975 58 488
3  535 59 488
3  504 51 489
3  490 53 489
3  974 52 491
3  520 33 493
3  503 61 494
3  1140 62 495
3  498 63 496
3  989 64 496
3  514 65 497
3  526 63 498
3  991 67 499
3  506 68 499
3  1136 35 500
3  1034 70 500
3  548 71 501
3  978 72 502
3  509 32 502
3  1045 73 503
3  523 61 503
3  511 73 504
3  511 64 505
3  990 74 505
3  533 70 506
3  534 75 507
3  560 76 507
3  577 69 508
3  605 77 509
3  536 79 510
3  1016 61 510
3  538 74 512
3  990 81 512
3  527 82 513
3  1159 81 513
3  1084 65 514
3  1078 38 515
3  554 83 515
3  1132 85 516
3  1175 29 516
3  567 86 517
3  542 44 517
3  568 84 518
3  1151 88 519
3  1065 89 519
3  543 89 520
3  1250 91 521
3  529 66 521
3  523 92 522
3  564 78 522
3  524 92 523
3  537 92 524
3  538 93 525
3  1146 94 526
3  540 82 527
3  974 95 528
3  1239 96 528
3  1037 97 529
3  1185 66 529
3  1235 99 530
3  531 100 530
3  558 100 531
3  1001 98 532
3  1000 103 533
3  545 75 534
3  549 104 535
3  593 62 536
3  1140 79 536
3  539 105 537
3  539 93 538
3  1159 82 540
3  1240 95 541
3  1147 83 541
3  985 44 542
3  1103 108 543
3  1024 89 543
3  1236 109 544
3  1114 101 544
3  1001 102 545
3  1137 69 546
3  561 111 546
3  563 112 547
3  987 77 548
3  604 71 548
3  649 104 549
3  1076 114 550
3  551 115 550
3  567 56 551
3  1035 115 551
3  583 107 552
3  1175 85 553
3  1073 116 553
3  978 39 555
3  557 119 556
3  570 109 556
3  1032 120 557
3  571 119 557
3  572 121 558
3  1237 102 559
3  592 123 560
3  577 76 560
3  576 124 561
3  562 111 561
3  578 111 562
3  1137 110 563
3  627 112 563
3  1149 126 564
3  580 78 564
3  982 127 565
3  1148 105 565
3  1146 65 566
3  1084 96 566
3  641 86 567
3  1065 88 568
3  609 84 568
3  584 130 569
3  585 131 569
3  1115 109 570
3  1093 133 571
3  1114 134 572
3  1020 121 572
3  1021 122 573
3  614 136 574
3  575 123 574
3  615 124 575
3  576 123 575
3  577 123 576
3  1209 110 578
3  642 137 579
3  691 138 579
3  581 139 580
3  595 139 581
3  1202 141 582
3  1043 107 583
3  1207 130 584
3  1085 144 585
3  1047 131 586
3  1255 146 587
3  1032 118 587
3  597 132 588
3  600 134 589
3  1115 132 589
3  1021 148 590
3  601 149 590
3  603 75 591
3  603 135 592
3  1169 151 593
3  1104 62 593
3  1149 127 594
3  596 152 595
3  608 152 596
3  611 147 597
3  1172 155 598
3  1186 156 598
3  623 157 599
3  1116 149 600
3  1066 40 602
3  664 129 602
3  625 135 603
3  605 159 604
3  617 159 605
3  620 160 606
3  1118 153 607
3  981 161 608
3  1031 162 609
3  642 117 610
3  1144 157 611
3  623 147 611
3  624 165 612
3  613 149 612
3  633 150 613
3  625 166 614
3  634 136 614
3  635 167 615
3  1183 125 616
3  1044 138 617
3  1176 159 617
3  1133 168 618
3  1181 43 618
3  621 169 619
3  650 160 620
3  1095 169 621
3  1242 172 622
3  1043 142 622
3  1117 147 623
3  653 173 624
3  632 165 624
3  647 166 625
3  971 175 626
3  1209 125 626
3  1209 175 627
3  1018 112 627
3  1109 176 628
3  637 177 628
3  1241 171 629
3  638 178 629
3  1229 179 630
3  638 171 630
3  643 181 631
3  646 182 631
3  645 183 632
3  633 165 632
3  655 150 633
3  648 136 634
3  648 185 635
3  1183 167 635
3  1109 112 636
3  1018 186 636
3  1056 187 637
3  639 178 638
3  650 169 639
3  1095 178 639
3  1073 188 640
3  659 142 640
3  1171 145 643
3  645 173 644
3  656 184 646
3  654 182 646
3  654 184 647
3  656 185 648
3  1190 189 649
3  1125 160 650
3  1151 87 651
3  662 191 651
3  1103 192 652
3  193 652 192
3  1177 194 657
3  1212 195 658
3  669 192 658
3  683 196 659
3  698 84 660
3  685 198 661
3  1256 190 661
3  1024 108 662
3  686 191 662
3  702 185 663
3  668 200 664
3  711 129 664
3  712 174 665
3  1011 185 665
3  971 202 666
3  1193 186 666
3  689 203 667
3  1099 204 668
3  192 669 205
3  1048 207 670
3  1133 151 670
3  208 671 193
3  1087 210 672
3  676 130 672
3  717 143 673
3  690 213 674
3  757 214 674
3  1154 215 675
3  701 216 676
3  986 194 677
3  718 200 677
3  205 678 217
3  704 207 679
3  1048 219 679
3  704 220 680
3  693 221 680
3  1124 222 681
3  696 223 682
3  694 222 682
3  684 224 683
3  697 225 684
3  700 226 685
3  749 198 685
3  709 228 687
3  701 210 687
3  725 229 688
3  1157 199 688
3  1193 230 689
3  1153 203 689
3  1080 187 690
3  692 231 691
3  1176 138 691
3  708 232 692
3  719 231 692
3  733 233 693
3  736 206 694
3  1076 221 695
3  705 234 695
3  1155 235 696
3  748 223 696
3  797 225 697
3  714 237 698
3  715 163 699
3  741 216 701
3  1157 201 702
3  1212 238 703
3  721 220 704
3  777 239 705
3  764 234 705
3  1027 236 706
3  1220 237 706
3  715 241 707
3  708 137 707
3  723 232 708
3  738 242 709
3  1087 209 710
3  724 243 710
3  788 211 711
3  771 244 712
3  994 174 712
3  1056 203 713
3  727 245 713
3  815 246 714
3  970 237 714
3  764 241 715
3  737 247 716
3  724 209 717
3  1207 143 717
3  1177 231 718
3  719 200 718
3  837 200 719
3  1210 214 720
3  728 217 720
3  822 248 721
3  733 220 721
3  1112 196 722
3  781 249 723
3  836 232 723
3  1195 243 724
3  726 229 725
3  806 251 726
3  772 245 727
3  758 253 728
3  732 255 729
3  744 256 729
3  761 258 730
3  731 259 730
3  760 255 731
3  732 259 731
3  1129 259 732
3  823 233 733
3  746 259 734
3  1129 219 734
3  1247 261 735
3  748 262 736
3  739 263 737
3  1004 264 738
3  739 242 738
3  1017 265 740
3  786 266 740
3  1106 267 741
3  994 268 742
3  755 202 742
3  744 269 743
3  1088 218 743
3  745 269 744
3  773 269 745
3  762 271 746
3  1120 257 747
3  778 262 748
3  780 272 749
3  1005 266 750
3  765 273 750
3  768 274 751
3  1106 228 752
3  1023 276 752
3  1098 250 753
3  1157 229 754
3  770 277 754
3  848 278 755
3  849 230 756
3  808 279 757
3  969 253 758
3  789 281 759
3  1089 269 759
3  761 282 760
3  774 282 761
3  763 283 762
3  792 271 762
3  1030 283 763
3  782 284 765
3  1059 285 766
3  783 286 767
3  787 274 768
3  787 287 769
3  983 244 771
3  980 245 772
3  1052 280 773
3  1121 289 774
3  790 290 775
3  794 291 776
3  1030 261 776
3  779 292 778
3  1160 292 779
3  1111 272 780
3  885 249 781
3  786 296 782
3  799 284 782
3  784 286 783
3  800 286 784
3  798 296 785
3  786 265 785
3  801 287 787
3  831 299 788
3  809 281 789
3  791 301 790
3  812 301 791
3  827 303 792
3  823 304 793
3  1077 291 794
3  1003 295 795
3  893 293 796
3  1154 196 796
3  1027 306 797
3  1173 307 798
3  828 284 799
3  1060 308 800
3  817 287 801
3  1017 243 802
3  816 298 802
3  1028 287 803
3  817 309 803
3  819 310 804
3  830 275 805
3  1098 311 806
3  832 251 806
3  1233 213 807
3  1234 312 808
3  969 279 808
3  1197 313 809
3  1038 314 810
3  821 316 811
3  1092 317 811
3  826 317 812
3  1121 303 813
3  814 302 813
3  825 302 814
3  1110 319 815
3  1002 246 815
3  1007 298 816
3  1101 322 818
3  819 309 818
3  1161 323 820
3  855 288 820
3  1228 316 821
3  1088 314 822
3  1143 248 822
3  826 325 824
3  838 315 824
3  839 325 825
3  840 318 827
3  1174 326 828
3  1059 327 829
3  843 328 829
3  845 329 830
3  837 330 831
3  850 299 831
3  862 251 832
3  863 332 833
3  980 288 834
3  855 334 834
3  1046 333 835
3  850 330 836
3  858 315 838
3  860 325 839
3  1174 338 841
3  866 339 841
3  1040 341 842
3  1128 342 842
3  1180 340 843
3  1213 328 843
3  1262 328 844
3  1213 321 844
3  1072 329 845
3  997 244 846
3  983 332 846
3  997 344 847
3  904 345 847
3  864 278 848
3  864 346 849
3  1036 299 850
3  872 291 851
3  1077 348 851
3  1101 321 852
3  1214 342 852
3  900 351 853
3  1071 349 853
3  862 352 854
3  1014 353 854
3  934 334 855
3  1197 354 856
3  866 338 856
3  880 355 857
3  1038 313 857
3  999 356 858
3  1223 324 859
3  1128 350 861
3  884 352 862
3  914 332 863
3  895 346 864
3  1192 323 865
3  871 339 866
3  1003 304 867
3  881 337 868
3  869 291 868
3  1030 291 869
3  1107 329 870
3  875 311 870
3  1224 358 871
3  876 339 871
3  882 357 872
3  1012 360 873
3  883 361 873
3  363 874 362
3  1165 246 874
3  879 364 876
3  877 339 876
3  1232 339 877
3  1224 356 878
3  1100 366 878
3  1178 364 879
3  1007 320 880
3  999 337 881
3  896 367 882
3  898 368 883
3  1221 369 884
3  894 352 884
3  1025 249 885
3  1130 361 886
3  972 306 887
3  888 371 887
3  924 371 888
3  1102 373 889
3  992 306 889
3  932 374 890
3  904 344 890
3  892 375 891
3  918 375 892
3  938 293 893
3  903 378 894
3  1008 352 894
3  915 379 895
3  1138 380 896
3  907 367 896
3  898 381 897
3  1057 376 897
3  1013 381 898
3  964 383 899
3  1201 384 899
3  1232 365 900
3  901 351 900
3  979 385 901
3  911 386 902
3  1152 329 902
3  1096 387 903
3  912 378 903
3  950 345 904
3  906 366 905
3  1100 357 905
3  907 388 906
3  976 388 907
3  1049 389 908
3  909 390 908
3  916 390 909
3  1201 383 910
3  1156 392 910
3  921 386 911
3  1082 393 912
3  914 353 913
3  1014 395 913
3  932 332 914
3  951 396 915
3  923 379 915
3  927 397 916
3  1258 388 917
3  1225 375 918
3  1013 392 919
3  929 399 919
3  967 400 920
3  940 401 921
3  1070 401 922
3  1026 403 922
3  948 371 923
3  925 379 924
3  992 373 925
3  1192 379 926
3  933 404 926
3  937 405 927
3  1261 397 927
3  1057 406 928
3  1134 398 928
3  1156 407 929
3  960 408 930
3  952 409 931
3  961 374 932
3  1266 404 933
3  334 934 404
3  1168 375 935
3  1225 402 935
3  1168 410 937
3  946 405 937
3  958 382 938
3  984 293 938
3  1026 401 939
3  940 408 939
3  979 408 940
3  1244 413 941
3  1222 402 941
3  963 415 942
3  943 393 942
3  956 416 943
3  996 393 943
3  996 416 944
3  968 394 944
3  953 417 945
3  954 405 946
3  963 418 947
3  977 399 947
3  959 370 948
3  953 411 949
3  961 419 950
3  951 345 950
3  959 396 951
3  1026 411 952
3  953 409 952
3  962 420 954
3  1083 421 955
3  1243 418 955
3  1204 422 956
3  966 422 957
3  1204 383 957
3  965 423 958
3  964 382 958
3  962 417 960
3  967 420 962
3  1127 419 965
3  1010 423 965
3  1010 394 968
3  253 969 312
3  1165 240 970
3  1147 95 973
3  974 55 973
3  1135 406 977
3  1233 245 980
3  1119 141 981
3  1158 106 982
3  1118 127 982
3  1160 293 984
3  1099 71 986
3  1245 37 988
3  990 64 989
3  1184 98 991
3  1000 67 991
3  1190 49 993
3  997 268 994
3  1136 24 998
3  1001 103 1000
3  1054 362 1002
3  1005 264 1004
3  1173 298 1007
3  1164 352 1008
3  1203 415 1009
3  1183 185 1011
3  1013 360 1012
3  1164 395 1014
3  1239 424 1015
3  1241 128 1015
3  1140 42 1016
3  1021 121 1020
3  1143 355 1022
3  1150 9 1029
3  1151 190 1031
3  1251 68 1033
3  1034 35 1033
3  1162 115 1035
3  1126 299 1036
3  1047 145 1037
3  1052 425 1039
3  1227 300 1039
3  1180 326 1040
3  1041 341 1040
3  1231 341 1041
3  1240 107 1042
3  1043 172 1042
3  1061 51 1045
3  1234 333 1046
3  1250 131 1047
3  1247 219 1048
3  1138 348 1049
3  1191 212 1050
3  1167 389 1051
3  1053 425 1052
3  1092 425 1053
3  362 1054 294
3  1186 155 1055
3  1058 406 1057
3  1179 327 1059
3  1262 343 1060
3  1141 308 1060
3  1257 272 1062
3  1182 168 1063
3  1163 43 1064
3  1181 113 1064
3  1251 34 1066
3  1091 17 1068
3  1070 331 1069
3  1221 331 1070
3  1072 322 1071
3  1219 188 1073
3  1182 221 1076
3  1130 348 1077
3  1108 48 1079
3  1258 426 1081
3  1083 414 1082
3  1086 250 1085
3  1089 314 1088
3  1144 133 1093
3  1095 170 1094
3  1222 413 1096
3  1097 387 1096
3  1266 373 1102
3  1122 192 1103
3  1107 267 1106
3  1109 48 1108
3  1111 319 1110
3  1113 305 1112
3  1139 305 1113
3  1115 134 1114
3  1117 164 1116
3  1186 164 1117
3  1119 153 1118
3  1121 257 1120
3  1249 158 1123
3  1169 160 1124
3  1125 222 1124
3  1229 222 1125
3  1195 299 1126
3  1139 370 1127
3  1218 219 1129
3  1131 361 1130
3  1200 361 1131
3  1220 85 1132
3  1135 412 1134
3  1244 412 1135
3  1137 24 1136
3  1142 308 1141
3  1145 157 1144
3  1205 94 1146
3  1149 92 1148
3  1161 252 1153
3  1155 215 1154
3  1203 407 1156
3  1159 106 1158
3  1163 115 1162
3  1166 240 1165
3  1168 391 1167
3  1170 160 1169
3  1172 154 1171
3  1174 307 1173
3  1177 159 1176
3  1259 364 1178
3  1180 327 1179
3  1182 113 1181
3  1235 98 1184
3  1188 181 1187
3  1191 189 1190
3  1223 354 1196
3  1197 300 1196
3  1265 290 1198
3  1199 317 1198
3  1201 359 1200
3  1205 161 1202
3  1204 415 1203
3  1206 161 1205
3  1211 189 1210
3  1212 104 1211
3  1214 321 1213
3  1216 10 1215
3  1218 256 1217
3  1220 236 1219
3  1222 369 1221
3  1224 354 1223
3  1226 402 1225
3  1228 300 1227
3  1230 222 1229
3  1232 350 1231
3  1234 213 1233
3  1236 99 1235
3  1238 150 1237
3  1240 424 1239
3  1242 171 1241
3  1244 418 1243
3  1246 37 1245
3  1248 261 1247
3  1250 90 1249
3  1252 68 1251
3  1253 68 1252
3  1255 97 1254
3  1257 162 1256
3  1265 270 1264
3  428 0 1189
3  428 1 432
3  428 2 437
3  429 1 1189
3  429 3 431
3  429 4 430
3  430 4 433
3  430 5 434
3  431 3 441
3  431 6 442
3  432 1 434
3  432 7 435
3  433 8 1091
3  433 4 439
3  434 5 1068
3  435 7 451
3  435 9 995
3  436 0 1208
3  436 10 457
3  436 11 440
3  437 2 995
3  437 12 1208
3  438 0 440
3  438 13 441
3  438 3 1189
3  439 4 442
3  439 14 445
3  440 11 448
3  441 13 1067
3  442 6 1105
3  443 12 995
3  443 9 1150
3  443 15 1215
3  444 8 1245
3  444 16 450
3  444 17 1091
3  445 14 455
3  445 18 1246
3  446 6 449
3  446 19 459
3  446 20 1105
3  447 7 1068
3  447 17 1194
3  447 21 1006
3  448 11 453
3  448 22 458
3  449 6 1067
3  449 23 466
3  450 16 998
3  450 24 1194
3  451 25 1029
3  451 7 1006
3  452 11 457
3  452 26 463
3  452 27 453
3  453 27 483
3  454 10 1216
3  454 28 492
3  454 29 465
3  455 14 1105
3  455 20 1019
3  456 26 464
3  456 30 1090
3  456 31 463
3  457 10 1074
3  458 22 470
3  458 23 1067
3  459 19 1075
3  459 32 474
3  460 33 492
3  460 28 1216
3  460 15 485
3  461 34 1033
3  461 35 998
3  461 16 988
3  462 18 1019
3  462 36 467
3  462 37 1246
3  463 31 1162
3  464 26 1074
3  464 38 1078
3  465 29 1175
3  465 38 1074
3  466 23 985
3  466 39 1075
3  467 40 486
3  467 36 501
3  468 41 1079
3  468 25 1006
3  468 21 471
3  469 31 472
3  469 42 495
3  469 43 1163
3  470 22 484
3  470 44 985
3  471 21 1194
3  471 24 547
3  472 31 1090
3  472 45 476
3  473 46 478
3  473 47 476
3  473 45 479
3  474 36 1019
3  474 32 987
3  475 25 1079
3  475 48 993
3  475 49 487
3  476 47 477
3  477 50 494
3  477 47 1061
3  478 46 490
3  478 51 1061
3  479 45 491
3  479 52 480
3  480 53 490
3  480 52 514
3  481 30 1078
3  481 54 973
3  481 55 482
3  482 55 491
3  482 45 1090
3  483 56 484
3  483 27 1035
3  484 56 517
3  485 15 1150
3  485 57 493
3  486 34 988
3  486 40 1066
3  487 49 975
3  487 57 1029
3  488 57 975
3  488 58 535
3  488 59 493
3  489 60 504
3  489 51 490
3  489 53 497
3  491 55 974
3  492 33 518
3  493 59 520
3  494 50 503
3  494 61 1016
3  495 42 1140
3  495 62 1104
3  496 60 498
3  496 63 989
3  496 64 511
3  497 53 514
3  497 65 498
3  498 65 526
3  499 66 991
3  499 67 506
3  499 68 1253
3  500 69 1136
3  500 35 1034
3  500 70 508
3  501 36 548
3  501 71 1099
3  502 39 978
3  502 72 509
3  502 32 1075
3  503 50 1045
3  503 73 523
3  504 60 511
3  504 73 1045
3  505 73 511
3  505 64 990
3  505 74 525
3  506 67 533
3  506 70 1034
3  507 70 534
3  507 75 560
3  507 76 508
3  508 76 577
3  509 72 605
3  509 77 987
3  510 78 536
3  510 79 1016
3  510 61 522
3  512 80 538
3  512 74 990
3  512 81 1158
3  513 63 527
3  513 82 1159
3  513 81 989
3  514 52 1084
3  515 54 1078
3  515 38 554
3  515 83 1147
3  516 84 1132
3  516 85 1175
3  516 29 518
3  517 56 567
3  517 86 542
3  518 33 568
3  519 87 1151
3  519 88 1065
3  519 89 1024
3  520 59 543
3  520 89 1065
3  521 90 1250
3  521 91 529
3  521 66 1253
3  522 61 523
3  522 92 564
3  523 73 524
3  524 93 537
3  524 73 525
3  525 74 538
3  526 65 1146
3  526 94 527
3  527 94 540
3  528 52 974
3  528 95 1239
3  528 96 1084
3  529 91 1037
3  529 97 1185
3  530 98 1235
3  530 99 531
3  530 100 532
3  531 101 558
3  531 99 544
3  532 102 1001
3  532 100 559
3  533 67 1000
3  533 103 534
3  534 103 545
3  535 58 549
3  535 104 1122
3  536 78 593
3  536 62 1140
3  537 93 539
3  537 105 1148
3  538 80 539
3  539 80 565
3  540 106 1159
3  540 94 582
3  541 107 1240
3  541 95 1147
3  541 83 552
3  542 39 985
3  542 86 555
3  543 59 1103
3  543 108 1024
3  544 99 1236
3  544 109 1114
3  545 103 1001
3  545 102 591
3  546 110 1137
3  546 69 561
3  546 111 578
3  547 24 563
3  547 112 1108
3  548 36 987
3  548 77 604
3  549 49 649
3  549 58 975
3  550 113 1076
3  550 114 551
3  550 115 1064
3  551 114 567
3  551 56 1035
3  552 116 583
3  552 83 554
3  553 38 1175
3  553 85 1073
3  553 116 554
3  555 117 978
3  555 86 610
3  556 118 557
3  556 119 570
3  556 109 1236
3  557 118 1032
3  557 120 571
3  558 101 572
3  558 121 573
3  559 122 1237
3  559 100 573
3  560 75 592
3  560 123 577
3  561 69 576
3  561 124 562
3  562 125 578
3  562 124 616
3  563 24 1137
3  563 110 627
3  564 92 1149
3  564 126 580
3  565 80 982
3  565 127 1148
3  566 128 1146
3  566 65 1084
3  566 96 1015
3  567 114 641
3  568 33 1065
3  568 88 609
3  569 129 584
3  569 130 585
3  569 131 1123
3  570 132 1115
3  570 119 588
3  571 120 1093
3  571 133 588
3  572 101 1114
3  572 134 1020
3  573 121 1021
3  574 135 614
3  574 136 575
3  574 123 592
3  575 136 615
3  575 124 576
3  576 69 577
3  578 125 1209
3  579 117 642
3  579 137 691
3  579 138 1044
3  580 126 581
3  580 139 1170
3  581 140 595
3  581 126 594
3  582 94 1202
3  582 141 1119
3  583 142 1043
3  583 116 640
3  584 143 1207
3  584 129 673
3  585 130 1085
3  585 144 586
3  586 145 1047
3  586 144 1187
3  587 97 1255
3  587 146 1032
3  587 118 1185
3  588 133 597
3  589 147 600
3  589 134 1115
3  589 132 597
3  590 122 1021
3  590 148 601
3  590 149 1238
3  591 150 603
3  591 102 1237
3  592 75 603
3  593 78 1169
3  593 151 1104
3  594 126 1149
3  594 127 607
3  595 140 596
3  595 152 606
3  596 153 608
3  596 140 607
3  597 133 611
3  598 154 1172
3  598 155 1186
3  598 156 599
3  599 156 623
3  599 157 1145
3  600 147 1116
3  600 149 601
3  601 148 1020
3  602 158 1066
3  602 40 664
3  602 129 1123
3  603 150 625
3  604 77 605
3  604 159 657
3  605 72 617
3  606 152 620
3  606 160 1170
3  607 127 1118
3  608 153 981
3  608 161 619
3  609 88 1031
3  609 162 660
3  610 163 642
3  610 86 641
3  611 133 1144
3  611 157 623
3  612 164 624
3  612 165 613
3  612 149 1116
3  613 165 633
3  613 150 1238
3  614 135 625
3  614 166 634
3  615 136 635
3  615 167 616
3  616 167 1183
3  617 72 1044
3  617 138 1176
3  618 151 1133
3  618 168 1181
3  618 43 1104
3  619 161 621
3  619 169 620
3  620 169 650
3  621 170 1095
3  621 161 1206
3  622 171 1242
3  622 172 1043
3  622 142 630
3  623 156 1117
3  624 164 653
3  624 173 632
3  625 150 647
3  626 174 971
3  626 175 1209
3  626 125 1011
3  627 110 1209
3  627 175 1018
3  628 48 1109
3  628 176 637
3  628 177 993
3  629 128 1241
3  629 171 638
3  629 178 1094
3  630 142 1229
3  630 179 638
3  631 180 643
3  631 181 646
3  631 182 644
3  632 173 645
3  632 183 633
3  633 183 655
3  634 184 648
3  634 166 647
3  635 136 648
3  635 185 1183
3  636 176 1109
3  636 112 1018
3  636 186 667
3  637 176 1056
3  637 187 1080
3  638 179 639
3  639 179 650
3  639 169 1095
3  640 116 1073
3  640 188 659
3  641 114 699
3  642 163 707
3  643 180 1171
3  643 145 1187
3  644 182 645
3  644 173 653
3  645 182 655
3  646 181 656
3  646 184 654
3  647 150 654
3  648 184 656
3  649 49 1190
3  649 189 1211
3  650 179 1125
3  651 190 1151
3  651 87 662
3  651 191 661
3  652 108 1103
3  652 193 671
3  653 164 1055
3  654 150 655
3  656 181 663
3  657 159 1177
3  657 194 986
3  658 104 1212
3  658 195 669
3  658 192 1122
3  659 188 683
3  659 196 675
3  660 197 698
3  660 162 1062
3  661 191 685
3  661 198 1256
3  662 87 1024
3  662 108 686
3  663 199 702
3  663 181 1188
3  664 40 668
3  664 200 711
3  665 201 712
3  665 174 1011
3  665 185 702
3  666 175 971
3  666 202 1193
3  666 186 1018
3  667 186 689
3  667 203 1056
3  668 40 1099
3  668 204 677
3  669 195 678
3  670 206 1048
3  670 207 1133
3  670 151 681
3  671 208 686
3  672 209 1087
3  672 210 676
3  672 130 1207
3  673 211 717
3  673 129 711
3  674 212 690
3  674 213 757
3  674 214 1050
3  675 196 1154
3  675 215 1230
3  676 210 701
3  676 216 1086
3  677 204 986
3  677 194 718
3  678 195 703
3  679 218 704
3  679 207 1048
3  679 219 1217
3  680 207 704
3  680 220 693
3  680 221 1063
3  681 151 1124
3  681 222 694
3  682 215 696
3  682 223 694
3  682 222 1230
3  683 188 684
3  683 224 722
3  684 188 697
3  684 225 722
3  685 191 700
3  685 226 749
3  686 208 700
3  687 227 709
3  687 228 701
3  687 210 1087
3  688 144 725
3  688 229 1157
3  688 199 1188
3  689 186 1193
3  689 230 1153
3  690 212 1080
3  690 187 807
3  691 137 692
3  691 231 1176
3  692 137 708
3  692 232 719
3  693 220 733
3  693 233 777
3  694 223 736
3  695 114 1076
3  695 221 705
3  695 234 699
3  696 215 1155
3  696 235 748
3  697 236 797
3  697 188 1219
3  698 197 714
3  698 237 1132
3  699 234 715
3  701 228 741
3  702 199 1157
3  703 195 1212
3  703 238 720
3  704 218 721
3  705 221 777
3  705 239 764
3  706 240 1027
3  706 236 1220
3  706 237 970
3  707 163 715
3  707 241 708
3  708 241 723
3  709 227 738
3  709 242 716
3  710 227 1087
3  710 209 724
3  710 243 1017
3  711 200 788
3  712 201 771
3  712 244 994
3  713 187 1056
3  713 203 727
3  713 245 807
3  714 197 815
3  714 246 970
3  715 234 764
3  716 242 737
3  716 247 1023
3  717 211 724
3  717 209 1207
3  718 194 1177
3  718 231 719
3  719 232 837
3  720 238 1210
3  720 214 728
3  721 218 822
3  721 248 733
3  722 225 1112
3  723 241 781
3  723 249 836
3  724 211 1195
3  725 250 726
3  725 144 1085
3  726 250 806
3  726 251 770
3  727 252 772
3  727 203 1153
3  728 214 758
3  729 254 732
3  729 255 744
3  729 256 1218
3  730 257 761
3  730 258 731
3  730 259 747
3  731 258 760
3  731 255 732
3  732 254 1129
3  733 248 823
3  734 260 746
3  734 259 1129
3  734 219 735
3  735 219 1247
3  735 261 763
3  736 223 748
3  736 262 1248
3  737 242 739
3  737 263 751
3  738 227 1004
3  738 264 739
3  739 264 1005
3  740 227 1017
3  740 265 786
3  740 266 1004
3  741 228 1106
3  741 267 753
3  742 174 994
3  742 268 755
3  742 202 971
3  743 256 744
3  743 269 1088
3  743 218 1217
3  744 255 745
3  745 270 773
3  745 255 1264
3  746 260 762
3  746 271 747
3  747 271 1120
3  748 235 778
3  749 226 780
3  749 272 1257
3  750 263 1005
3  750 266 765
3  750 273 767
3  751 263 768
3  751 274 769
3  752 275 1106
3  752 228 1023
3  752 276 805
3  753 267 1098
3  753 250 1086
3  754 201 1157
3  754 229 770
3  754 277 771
3  755 268 848
3  755 278 756
3  756 278 849
3  756 230 1193
3  757 213 808
3  757 279 758
3  758 279 969
3  759 280 789
3  759 281 1089
3  759 269 773
3  760 258 761
3  760 282 1264
3  761 257 774
3  762 260 763
3  762 283 792
3  763 261 1030
3  764 239 795
3  765 266 782
3  765 284 766
3  766 284 1059
3  766 285 783
3  767 273 783
3  767 286 768
3  768 286 787
3  769 274 787
3  769 287 1028
3  770 251 833
3  771 277 983
3  772 288 980
3  772 252 820
3  773 270 1052
3  774 257 1121
3  774 289 775
3  775 289 790
3  775 290 1265
3  776 262 794
3  776 291 1030
3  776 261 1248
3  777 233 793
3  778 235 779
3  778 292 794
3  779 293 1160
3  779 235 1155
3  780 294 1111
3  781 295 885
3  781 241 795
3  782 266 786
3  782 296 799
3  783 285 784
3  784 297 800
3  784 285 1263
3  785 298 798
3  785 296 786
3  785 265 802
3  787 286 801
3  788 200 831
3  788 299 1195
3  789 300 809
3  789 280 1039
3  790 289 791
3  790 301 1199
3  791 302 812
3  791 289 813
3  792 283 827
3  792 303 1120
3  793 233 823
3  793 304 1003
3  794 292 1077
3  795 239 1003
3  796 305 893
3  796 293 1154
3  796 196 1112
3  797 236 1027
3  797 306 972
3  798 298 1173
3  798 307 799
3  799 307 828
3  800 297 1060
3  800 308 801
3  801 308 817
3  802 265 1017
3  802 243 816
3  803 276 1028
3  803 287 817
3  803 309 804
3  804 309 819
3  804 310 805
3  805 310 830
3  806 250 1098
3  806 311 832
3  807 245 1233
3  808 213 1234
3  808 312 969
3  809 300 1197
3  809 313 810
3  810 313 1038
3  810 314 1089
3  811 315 821
3  811 316 1092
3  811 317 824
3  812 302 826
3  812 317 1199
3  813 289 1121
3  813 303 814
3  814 318 825
3  814 303 827
3  815 197 1110
3  815 319 1002
3  816 320 1007
3  816 243 1126
3  817 308 1142
3  818 321 1101
3  818 322 819
3  818 309 1142
3  819 322 845
3  820 252 1161
3  820 323 855
3  821 324 1228
3  821 315 859
3  822 218 1088
3  822 314 1143
3  823 248 867
3  824 317 826
3  824 325 838
3  825 318 839
3  825 325 826
3  827 283 840
3  828 307 1174
3  828 326 1179
3  829 285 1059
3  829 327 843
3  829 328 1263
3  830 310 845
3  830 329 1107
3  831 200 837
3  831 330 850
3  832 331 862
3  832 311 875
3  833 251 863
3  833 332 983
3  834 333 980
3  834 288 855
3  834 334 835
3  835 335 1046
3  836 249 850
3  836 330 837
3  838 336 858
3  838 325 860
3  839 337 860
3  839 318 840
3  840 283 869
3  841 326 1174
3  841 338 866
3  841 339 1041
3  842 340 1040
3  842 341 1128
3  842 342 1214
3  843 327 1180
3  843 340 1213
3  844 343 1262
3  844 328 1213
3  844 321 1141
3  845 322 1072
3  846 344 997
3  846 244 983
3  846 332 890
3  847 268 997
3  847 344 904
3  847 345 848
3  848 345 864
3  849 278 864
3  849 346 865
3  850 249 1036
3  851 347 872
3  851 291 1077
3  851 348 1138
3  852 349 1101
3  852 321 1214
3  852 342 861
3  853 350 900
3  853 351 1071
3  853 349 861
3  854 251 862
3  854 352 1014
3  854 353 863
3  855 323 934
3  856 313 1197
3  856 354 866
3  856 338 857
3  857 338 880
3  857 355 1038
3  858 336 999
3  858 356 859
3  859 356 1223
3  860 337 999
3  861 342 1128
3  862 331 884
3  863 353 914
3  864 345 895
3  865 346 1192
3  865 323 1161
3  866 354 871
3  867 295 1003
3  867 248 1022
3  868 357 881
3  868 337 869
3  868 291 872
3  869 283 1030
3  870 267 1107
3  870 329 875
3  870 311 1098
3  871 354 1224
3  871 358 876
3  872 347 882
3  873 359 1012
3  873 360 883
3  873 361 1200
3  874 363 1165
3  874 246 1002
3  875 329 1152
3  876 358 879
3  876 364 877
3  877 365 1232
3  877 364 920
3  878 358 1224
3  878 356 1100
3  878 366 879
3  879 366 1178
3  880 338 1007
3  880 320 1025
3  881 356 999
3  881 357 1100
3  882 347 896
3  882 367 905
3  883 360 898
3  883 368 886
3  884 331 1221
3  884 369 894
3  885 355 1025
3  885 295 1022
3  886 348 1130
3  886 368 891
3  887 370 972
3  887 306 888
3  887 371 948
3  888 372 924
3  888 306 992
3  889 363 1102
3  889 373 992
3  889 306 1166
3  890 332 932
3  890 374 904
3  891 368 892
3  891 375 1051
3  892 376 918
3  892 368 897
3  893 377 938
3  893 305 1139
3  894 369 903
3  894 378 1008
3  895 345 915
3  895 379 1192
3  896 347 1138
3  896 380 907
3  897 368 898
3  897 381 1057
3  898 360 1013
3  899 382 964
3  899 383 1201
3  899 384 984
3  900 350 1232
3  900 365 901
3  901 365 979
3  901 385 911
3  902 351 911
3  902 386 1152
3  902 329 1072
3  903 369 1096
3  903 387 912
3  904 374 950
3  905 367 906
3  905 366 1100
3  906 367 907
3  906 388 1081
3  907 380 976
3  908 380 1049
3  908 389 909
3  908 390 976
3  909 391 916
3  909 389 1167
3  910 359 1201
3  910 383 1156
3  910 392 1012
3  911 385 921
3  912 387 1082
3  912 393 1008
3  913 394 914
3  913 353 1014
3  913 395 944
3  914 394 932
3  915 345 951
3  915 396 923
3  916 391 927
3  916 397 917
3  917 397 1258
3  917 388 976
3  918 398 1225
3  918 376 928
3  919 381 1013
3  919 392 929
3  919 399 1058
3  920 364 967
3  920 400 930
3  921 385 940
3  921 401 1069
3  922 402 1070
3  922 401 1026
3  922 403 931
3  923 396 948
3  923 371 924
3  924 372 925
3  925 372 992
3  925 373 933
3  926 323 1192
3  926 379 933
3  926 404 934
3  927 391 937
3  927 405 1261
3  928 376 1057
3  928 406 1134
3  929 392 1156
3  929 407 1009
3  930 400 960
3  930 408 979
3  931 403 952
3  931 409 936
3  932 394 961
3  933 373 1266
3  935 410 1168
3  935 375 1225
3  935 402 936
3  936 409 945
3  937 391 1168
3  937 410 946
3  938 377 958
3  938 382 984
3  939 411 1026
3  939 401 940
3  939 408 949
3  940 385 979
3  941 412 1244
3  941 413 1222
3  941 402 1226
3  942 414 963
3  942 415 943
3  942 393 1082
3  943 415 956
3  943 416 996
3  944 395 996
3  944 416 968
3  945 409 953
3  945 417 946
3  946 417 954
3  947 415 963
3  947 418 977
3  947 399 1009
3  948 396 959
3  949 417 953
3  949 408 960
3  950 374 961
3  950 419 951
3  951 419 959
3  952 403 1026
3  952 411 953
3  954 417 962
3  954 420 1260
3  955 414 1083
3  955 421 1243
3  955 418 963
3  956 415 1204
3  956 422 966
3  957 423 966
3  957 422 1204
3  957 383 964
3  958 377 965
3  958 423 964
3  959 419 1127
3  960 400 962
3  961 394 1010
3  962 400 967
3  965 377 1127
3  965 419 1010
3  966 423 968
3  967 364 1259
3  968 423 1010
3  970 246 1165
3  972 370 1113
3  973 54 1147
3  973 95 974
3  977 418 1135
3  977 406 1058
3  978 117 1044
3  980 333 1233
3  981 153 1119
3  981 141 1202
3  982 80 1158
3  982 106 1118
3  984 384 1160
3  986 204 1099
3  988 16 1245
3  989 81 990
3  991 66 1184
3  991 98 1000
3  993 177 1190
3  994 244 997
3  996 395 1164
3  998 35 1136
3  1000 98 1001
3  1002 319 1054
3  1004 266 1005
3  1007 338 1173
3  1008 393 1164
3  1009 407 1203
3  1011 125 1183
3  1012 392 1013
3  1014 352 1164
3  1015 96 1239
3  1015 424 1241
3  1016 79 1140
3  1020 148 1021
3  1022 248 1143
3  1023 247 1028
3  1025 320 1036
3  1027 240 1166
3  1029 57 1150
3  1031 88 1151
3  1031 190 1256
3  1032 146 1093
3  1033 34 1251
3  1033 68 1034
3  1035 27 1162
3  1036 320 1126
3  1037 91 1047
3  1037 145 1254
3  1038 355 1143
3  1039 280 1052
3  1039 425 1227
3  1040 340 1180
3  1040 326 1041
3  1041 339 1231
3  1042 424 1240
3  1042 107 1043
3  1042 172 1242
3  1045 50 1061
3  1046 312 1234
3  1047 91 1250
3  1048 206 1247
3  1049 380 1138
3  1049 348 1051
3  1050 189 1191
3  1050 214 1210
3  1051 375 1167
3  1052 270 1053
3  1053 317 1092
3  1053 270 1198
3  1054 319 1111
3  1055 164 1186
3  1055 155 1172
3  1057 381 1058
3  1059 284 1179
3  1060 297 1262
3  1060 343 1141
3  1062 162 1257
3  1062 272 1110
3  1063 221 1182
3  1063 168 1133
3  1064 115 1163
3  1064 43 1181
3  1066 158 1251
3  1068 5 1091
3  1069 401 1070
3  1069 331 1152
3  1070 402 1221
3  1071 351 1072
3  1071 322 1101
3  1073 85 1219
3  1076 113 1182
3  1077 292 1130
3  1079 41 1108
3  1080 212 1191
3  1081 388 1258
3  1081 426 1178
3  1082 387 1083
3  1083 387 1097
3  1085 130 1086
3  1088 269 1089
3  1092 316 1227
3  1093 146 1144
3  1094 178 1095
3  1094 170 1206
3  1096 369 1222
3  1096 413 1097
3  1097 413 1243
3  1102 427 1266
3  1103 59 1122
3  1106 275 1107
3  1108 112 1109
3  1110 272 1111
3  1112 225 1113
3  1113 370 1139
3  1114 109 1115
3  1116 147 1117
3  1117 156 1186
3  1118 106 1119
3  1120 303 1121
3  1123 131 1249
3  1124 151 1169
3  1124 160 1125
3  1125 179 1229
3  1126 243 1195
3  1127 377 1139
3  1128 341 1231
3  1129 254 1218
3  1130 292 1131
3  1131 384 1200
3  1131 292 1160
3  1132 237 1220
3  1134 406 1135
3  1134 412 1226
3  1135 418 1244
3  1136 69 1137
3  1141 321 1142
3  1144 146 1145
3  1145 146 1255
3  1146 128 1205
3  1148 127 1149
3  1153 230 1161
3  1154 293 1155
3  1156 383 1203
3  1158 81 1159
3  1162 31 1163
3  1165 363 1166
3  1167 375 1168
3  1169 78 1170
3  1171 180 1172
3  1171 154 1254
3  1173 338 1174
3  1176 231 1177
3  1178 426 1259
3  1179 326 1180
3  1181 168 1182
3  1184 118 1235
3  1184 66 1185
3  1187 144 1188
3  1190 177 1191
3  1196 324 1223
3  1196 354 1197
3  1196 300 1228
3  1198 270 1265
3  1198 290 1199
3  1200 384 1201
3  1202 94 1205
3  1203 383 1204
3  1205 128 1206
3  1208 12 1215
3  1210 238 1211
3  1211 238 1212
3  1213 340 1214
3  1215 15 1216
3  1217 219 1218
3  1219 85 1220
3  1221 402 1222
3  1223 356 1224
3  1225 398 1226
3  1227 316 1228
3  1229 142 1230
3  1231 339 1232
3  1233 333 1234
3  1235 118 1236
3  1237 122 1238
3  1239 95 1240
3  1241 424 1242
3  1243 413 1244
3  1245 8 1246
3  1247 206 1248
3  1249 131 1250
3  1249 90 1252
3  1251 158 1252
3  1252 90 1253
3  1254 154 1255
3  1256 198 1257
3  1258 397 1261
3  1259 426 1260
3  1260 426 1261
3  1262 297 1263
3  1264 282 1265

