OFF
38 72 0
-1 -7.62939e-08 0
0 -1 0
1 0 0
0 1 0
0 0 1
0 0 -1
0 -0.894427 0.447214
0 -0.447214 0.894427
-0.894427 -0.447214 0
-0.447214 -0.894427 0
-0.894427 0 0.447214
-0.447214 0 0.894427
0.894427 0 0.447214
0.447214 0 0.894427
0.447214 -0.894427 0
0.894427 -0.447214 0
0 0.894427 0.447214
0 0.447214 0.894427
0.894427 0.447214 0
0.447214 0.894427 0
-0.894427 0.447214 0
-0.447214 0.894427 0
-0.894427 0 -0.447214
-0.447214 0 -0.894427
0 -0.894427 -0.447214
0 -0.447214 -0.894427
0.894427 0 -0.447214
0.447214 0 -0.894427
0 0.894427 -0.447214
0 0.447214 -0.894427
-0.57735 -0.57735 0.57735
0.57735 -0.57735 0.57735
0.57735 0.57735 0.57735
-0.57735 0.57735 0.57735
-0.57735 -0.57735 -0.57735
0.57735 -0.57735 -0.57735
0.57735 0.57735 -0.57735
-0.57735 0.57735 -0.57735
3 11 7 4
3 30 6 7
3 7 11 30
3 10 30 11
3 9 1 6
3 6 30 9
3 8 9 30
3 30 10 8
3 0 8 10
3 7 13 4
3 31 12 13
3 13 7 31
3 6 31 7
3 15 2 12
3 12 31 15
3 14 15 31
3 31 6 14
3 1 14 6
3 13 17 4
3 32 16 17
3 17 13 32
3 12 32 13
3 19 3 16
3 16 32 19
3 18 19 32
3 32 12 18
3 2 18 12
3 17 11 4
3 33 10 11
3 11 17 33
3 16 33 17
3 20 0 10
3 10 33 20
3 21 20 33
3 33 16 21
3 3 21 16
3 25 23 5
3 34 22 23
3 23 25 34
3 24 34 25
3 8 0 22
3 22 34 8
3 9 8 34
3 34 24 9
3 1 9 24
3 27 25 5
3 35 24 25
3 25 27 35
3 26 35 27
3 14 1 24
3 24 35 14
3 15 14 35
3 35 26 15
3 2 15 26
3 29 27 5
3 36 26 27
3 27 29 36
3 28 36 29
3 18 2 26
3 26 36 18
3 19 18 36
3 36 28 19
3 3 19 28
3 23 29 5
3 37 28 29
3 29 23 37
3 22 37 23
3 21 3 28
3 28 37 21
3 20 21 37
3 37 22 20
3 0 20 22
